projects/fmcjesdadc1/kc705/.Xil/Vivado-15088-CI-89/hw_ila_data_1/zip_work/waveform.vcd
$date
        2021-Dec-23 16:51:36
$end
$version
        Vivado v2019.1 (64-bit)
$end
$timescale
        1ps
$end
$scope module dut $end
$var reg 14 " data_a_low [13:0] $end
$var reg 32 0 i_system_wrapper/system_i/axi_ad9250_core_adc_data_a [31:0] $end
$var reg 14 P data_a_high' [13:0] $end
$var reg 14 ^ data_b_low [13:0] $end
$var reg 32 l i_system_wrapper/system_i/axi_ad9250_core_adc_data_b [31:0] $end
$var reg 14 ." data_a_high [13:0] $end
$var reg 14 <" data_b_high [13:0] $end
$var reg 14 J" high [13:0] $end
$var reg 1 X" i_system_wrapper/system_i/axi_ad9250_core_rx_ready $end
$var reg 1 Y" i_system_wrapper/system_i/axi_ad9250_core_adc_clk $end
$var reg 1 Z" i_system_wrapper/system_i/axi_ad9250_core_adc_valid_a $end
$var reg 1 [" i_system_wrapper/system_i/axi_ad9250_core_adc_enable_a $end
$var reg 1 \" i_system_wrapper/system_i/axi_ad9250_core_adc_valid_b $end
$var reg 1 ]" i_system_wrapper/system_i/axi_ad9250_core_adc_enable_b $end
$var reg 1 ^" _TRIGGER $end
$var reg 1 _" _WINDOW $end
$var reg 1 `" _GAP $end
$upscope $end
$enddefinitions $end
#0
$dumpvars
b11111110100000 "
b11111111100001101111111110100000 0
b11111110000110 P
b1110010 ^
b100001100000000001110010 l
b10000110 ."
b10000110 <"
b10000110 J"
1X"
1Y"
1Z"
1["
1\"
1]"
1^"
1_"
0`"
$end
#1
b11111101110011 "
b11111111011011011111111101110011 0
b11111101101101 P
b10010110 ^
b100111110000000010010110 l
b10011111 ."
b10011111 <"
b10011111 J"
#2
b11111101110001 "
b11111111011111011111111101110001 0
b11111101111101 P
b10011100 ^
b100011110000000010011100 l
b10001111 ."
b10001111 <"
b10001111 J"
#3
b11111110010011 "
b11111111101011011111111110010011 0
b11111110101101 P
b1111011 ^
b11000000000000001111011 l
b1100000 ."
b1100000 <"
b1100000 J"
#4
b11111111010100 "
b11111111111110101111111111010100 0
b11111111111010 P
b111101 ^
b101100000000000111101 l
b10110 ."
b10110 <"
b10110 J"
#5
b100011 "
b10010010000000000100011 0
b1001001 P
b11111111101111 ^
b11111111110010101111111111101111 l
b11111111001010 ."
b11111111001010 <"
b11111111001010 J"
#6
b1101100 "
b100001100000000001101100 0
b10000110 P
b11111110100100 ^
b11111111100011011111111110100100 l
b11111110001101 ."
b11111110001101 <"
b11111110001101 J"
#7
b10011011 "
b101001100000000010011011 0
b10100110 P
b11111101110100 ^
b11111111011010011111111101110100 l
b11111101101001 ."
b11111101101001 <"
b11111101101001 J"
#8
b10101100 "
b101000100000000010101100 0
b10100010 P
b11111101100011 ^
b11111111011010111111111101100011 l
b11111101101011 ."
b11111101101011 <"
b11111101101011 J"
#9
b10010000 "
b11110000000000010010000 0
b1111000 P
b11111101111101 ^
b11111111100101011111111101111101 l
b11111110010101 ."
b11111110010101 <"
b11111110010101 J"
#10
b1011000 "
b1100100000000001011000 0
b110010 P
b11111110110110 ^
b11111111110110111111111110110110 l
b11111111011011 ."
b11111111011011 <"
b11111111011011 J"
#11
b1101 "
b11111111111001010000000000001101 0
b11111111100101 P
b100 ^
b1010110000000000000100 l
b101011 ."
b101011 <"
b101011 J"
#12
b11111110111111 "
b11111111101000001111111110111111 0
b11111110100000 P
b1001111 ^
b11011100000000001001111 l
b1101110 ."
b1101110 <"
b1101110 J"
#13
b11111110000101 "
b11111111011101011111111110000101 0
b11111101110101 P
b10001001 ^
b100101100000000010001001 l
b10010110 ."
b10010110 <"
b10010110 J"
#14
b11111101101100 "
b11111111011100001111111101101100 0
b11111101110000 P
b10100001 ^
b100111110000000010100001 l
b10011111 ."
b10011111 <"
b10011111 J"
#15
b11111101111101 "
b11111111100100111111111101111101 0
b11111110010011 P
b10001111 ^
b11110110000000010001111 l
b1111011 ."
b1111011 <"
b1111011 J"
#16
b11111110110010 "
b11111111110101001111111110110010 0
b11111111010100 P
b1011101 ^
b1111110000000001011101 l
b111111 ."
b111111 <"
b111111 J"
#17
b11111111111000 "
b1000011111111111111000 0
b100001 P
b11000 ^
b11111111111100000000000000011000 l
b11111111110000 ."
b11111111110000 <"
b11111111110000 J"
#18
b1001001 "
b11011100000000001001001 0
b1101110 P
b11111111000110 ^
b11111111101001001111111111000110 l
b11111110100100 ."
b11111110100100 <"
b11111110100100 J"
#19
b10000101 "
b100111000000000010000101 0
b10011100 P
b11111110001001 ^
b11111111011100101111111110001001 l
b11111101110010 ."
b11111101110010 <"
b11111101110010 J"
#20
b10101010 "
b101011010000000010101010 0
b10101101 P
b11111101100011 ^
b11111111011001001111111101100011 l
b11111101100100 ."
b11111101100100 <"
b11111101100100 J"
#21
b10100101 "
b100100000000000010100101 0
b10010000 P
b11111101101011 ^
b11111111011111101111111101101011 l
b11111101111110 ."
b11111101111110 <"
b11111101111110 J"
#22
b1111001 "
b10110000000000001111001 0
b1011000 P
b11111110010101 ^
b11111111101110001111111110010101 l
b11111110111000 ."
b11111110111000 <"
b11111110111000 J"
#23
b110101 "
b11010000000000110101 0
b1101 P
b11111111011010 ^
b111111111111011010 l
b11 ."
b11 <"
b11 J"
#24
b11111111100101 "
b11111111101111111111111111100101 0
b11111110111111 P
b100110 ^
b10100010000000000100110 l
b1010001 ."
b1010001 <"
b1010001 J"
#25
b11111110011111 "
b11111111100001011111111110011111 0
b11111110000101 P
b1110000 ^
b100010000000000001110000 l
b10001000 ."
b10001000 <"
b10001000 J"
#26
b11111101110011 "
b11111111011100011111111101110011 0
b11111101110001 P
b10011000 ^
b101000010000000010011000 l
b10100001 ."
b10100001 <"
b10100001 J"
#27
b11111101110000 "
b11111111011111111111111101110000 0
b11111101111111 P
b10011110 ^
b100100010000000010011110 l
b10010001 ."
b10010001 <"
b10010001 J"
#28
b11111110010011 "
b11111111101011111111111110010011 0
b11111110101111 P
b1111110 ^
b10111110000000001111110 l
b1011111 ."
b1011111 <"
b1011111 J"
#29
b11111111010011 "
b11111111111110001111111111010011 0
b11111111111000 P
b111101 ^
b110000000000000111101 l
b11000 ."
b11000 <"
b11000 J"
#30
b100001 "
b10010110000000000100001 0
b1001011 P
b11111111101001 ^
b11111111110010101111111111101001 l
b11111111001010 ."
b11111111001010 <"
b11111111001010 J"
#31
b1101001 "
b100001100000000001101001 0
b10000110 P
b11111110100011 ^
b11111111100010101111111110100011 l
b11111110001010 ."
b11111110001010 <"
b11111110001010 J"
#32
b10011100 "
b101010000000000010011100 0
b10101000 P
b11111101110101 ^
b11111111011010011111111101110101 l
b11111101101001 ."
b11111101101001 <"
b11111101101001 J"
#33
b10101011 "
b101000010000000010101011 0
b10100001 P
b11111101100101 ^
b11111111011011011111111101100101 l
b11111101101101 ."
b11111101101101 <"
b11111101101101 J"
#34
b10010010 "
b11110110000000010010010 0
b1111011 P
b11111101111011 ^
b11111111100110001111111101111011 l
b11111110011000 ."
b11111110011000 <"
b11111110011000 J"
#35
b1010110 "
b1100100000000001010110 0
b110010 P
b11111110111001 ^
b11111111110111011111111110111001 l
b11111111011101 ."
b11111111011101 <"
b11111111011101 J"
#36
b1011 "
b11111111111001000000000000001011 0
b11111111100100 P
b0 ^
b1011000000000000000000 l
b101100 ."
b101100 <"
b101100 J"
#37
b11111110111101 "
b11111111101000101111111110111101 0
b11111110100010 P
b1001111 ^
b11011100000000001001111 l
b1101110 ."
b1101110 <"
b1101110 J"
#38
b11111110001000 "
b11111111011101011111111110001000 0
b11111101110101 P
b10000111 ^
b100111000000000010000111 l
b10011100 ."
b10011100 <"
b10011100 J"
#39
b11111101101110 "
b11111111011101001111111101101110 0
b11111101110100 P
b10011111 ^
b100111000000000010011111 l
#40
b11111101111110 "
b11111111100100111111111101111110 0
b11111110010011 P
b10010000 ^
b11110100000000010010000 l
b1111010 ."
b1111010 <"
b1111010 J"
#41
b11111110110000 "
b11111111110100011111111110110000 0
b11111111010001 P
b1011111 ^
b1110010000000001011111 l
b111001 ."
b111001 <"
b111001 J"
#42
b11111111111010 "
b111101111111111111010 0
b11110 P
b11000 ^
b11111111111011010000000000011000 l
b11111111101101 ."
b11111111101101 <"
b11111111101101 J"
#43
b1001010 "
b11010100000000001001010 0
b1101010 P
b11111111001000 ^
b11111111101000111111111111001000 l
b11111110100011 ."
b11111110100011 <"
b11111110100011 J"
#44
b10000101 "
b100111000000000010000101 0
b10011100 P
b11111110001000 ^
b11111111011100011111111110001000 l
b11111101110001 ."
b11111101110001 <"
b11111101110001 J"
#45
b10100111 "
b101010110000000010100111 0
b10101011 P
b11111101100111 ^
b11111111011000111111111101100111 l
b11111101100011 ."
b11111101100011 <"
b11111101100011 J"
#46
b10100010 "
b100100010000000010100010 0
b10010001 P
b11111101101011 ^
b11111111011111011111111101101011 l
b11111101111101 ."
b11111101111101 <"
b11111101111101 J"
#47
b1111001 "
b10110010000000001111001 0
b1011001 P
b11111110010101 ^
b11111111101110101111111110010101 l
b11111110111010 ."
b11111110111010 <"
b11111110111010 J"
#48
b110010 "
b11010000000000110010 0
b1101 P
b11111111011100 ^
b1011111111111011100 l
b101 ."
b101 <"
b101 J"
#49
b11111111100011 "
b11111111110000011111111111100011 0
b11111111000001 P
b101010 ^
b10100000000000000101010 l
b1010000 ."
b1010000 <"
b1010000 J"
#50
b11111110011111 "
b11111111100000111111111110011111 0
b11111110000011 P
b1101110 ^
b100010110000000001101110 l
b10001011 ."
b10001011 <"
b10001011 J"
#51
b11111101110101 "
b11111111011011101111111101110101 0
b11111101101110 P
b10010111 ^
b100111010000000010010111 l
b10011101 ."
b10011101 <"
b10011101 J"
#52
b11111101110011 "
b11111111011111001111111101110011 0
b11111101111100 P
b10011111 ^
b100011100000000010011111 l
b10001110 ."
b10001110 <"
b10001110 J"
#53
b11111110010010 "
b11111111101100001111111110010010 0
b11111110110000 P
b1111010 ^
b11000010000000001111010 l
b1100001 ."
b1100001 <"
b1100001 J"
#54
b11111111010100 "
b11111111111101111111111111010100 0
b11111111110111 P
b111110 ^
b101100000000000111110 l
b10110 ."
b10110 <"
b10110 J"
#55
b100010 "
b10010010000000000100010 0
b1001001 P
b11111111101110 ^
b11111111110010101111111111101110 l
b11111111001010 ."
b11111111001010 <"
b11111111001010 J"
#56
b1101001 "
b100001010000000001101001 0
b10000101 P
b11111110100111 ^
b11111111100010101111111110100111 l
b11111110001010 ."
b11111110001010 <"
b11111110001010 J"
#57
b10011101 "
b101010010000000010011101 0
b10101001 P
b11111101110010 ^
b11111111011010001111111101110010 l
b11111101101000 ."
b11111101101000 <"
b11111101101000 J"
#58
b10101011 "
b100111110000000010101011 0
b10011111 P
b11111101100110 ^
b11111111011011011111111101100110 l
b11111101101101 ."
b11111101101101 <"
b11111101101101 J"
#59
b10010010 "
b11110100000000010010010 0
b1111010 P
b11111101111111 ^
b11111111100110011111111101111111 l
b11111110011001 ."
b11111110011001 <"
b11111110011001 J"
#60
b1011011 "
b1100100000000001011011 0
b110010 P
b11111110111001 ^
b11111111110111011111111110111001 l
b11111111011101 ."
b11111111011101 <"
b11111111011101 J"
#61
b1011 "
b11111111111000110000000000001011 0
b11111111100011 P
b0 ^
b1010010000000000000000 l
b101001 ."
b101001 <"
b101001 J"
#62
b11111110111111 "
b11111111100111001111111110111111 0
b11111110011100 P
b1010001 ^
b11100000000000001010001 l
b1110000 ."
b1110000 <"
b1110000 J"
#63
b11111110001000 "
b11111111011101011111111110001000 0
b11111101110101 P
b10001000 ^
b100110000000000010001000 l
b10011000 ."
b10011000 <"
b10011000 J"
#64
b11111101101110 "
b11111111011100101111111101101110 0
b11111101110010 P
b10100000 ^
b100111010000000010100000 l
b10011101 ."
b10011101 <"
b10011101 J"
#65
b11111101111111 "
b11111111100101001111111101111111 0
b11111110010100 P
b10010011 ^
b11111100000000010010011 l
b1111110 ."
b1111110 <"
b1111110 J"
#66
b11111110110000 "
b11111111110100101111111110110000 0
b11111111010010 P
b1011101 ^
b1110100000000001011101 l
b111010 ."
b111010 <"
b111010 J"
#67
b11111111111001 "
b1000001111111111111001 0
b100000 P
b10101 ^
b11111111111100000000000000010101 l
b11111111110000 ."
b11111111110000 <"
b11111111110000 J"
#68
b1001001 "
b11011000000000001001001 0
b1101100 P
b11111111001001 ^
b11111111101001011111111111001001 l
b11111110100101 ."
b11111110100101 <"
b11111110100101 J"
#69
b10000101 "
b100110110000000010000101 0
b10011011 P
b11111110001100 ^
b11111111011101011111111110001100 l
b11111101110101 ."
b11111101110101 <"
b11111101110101 J"
#70
b10101000 "
b101011000000000010101000 0
b10101100 P
b11111101100111 ^
b11111111011001101111111101100111 l
b11111101100110 ."
b11111101100110 <"
b11111101100110 J"
#71
b10100100 "
b100101000000000010100100 0
b10010100 P
b11111101101110 ^
b11111111011111011111111101101110 l
b11111101111101 ."
b11111101111101 <"
b11111101111101 J"
#72
b1111001 "
b10101100000000001111001 0
b1010110 P
b11111110011010 ^
b11111111101101101111111110011010 l
b11111110110110 ."
b11111110110110 <"
b11111110110110 J"
#73
b110101 "
b10110000000000110101 0
b1011 P
b11111111011011 ^
b101111111111011011 l
b10 ."
b10 <"
b10 J"
#74
b11111111100110 "
b11111111110000001111111111100110 0
b11111111000000 P
b101001 ^
b10100000000000000101001 l
b1010000 ."
b1010000 <"
b1010000 J"
#75
b11111110011111 "
b11111111100001111111111110011111 0
b11111110000111 P
b1101101 ^
b100010000000000001101101 l
b10001000 ."
b10001000 <"
b10001000 J"
#76
b11111101110110 "
b11111111011100001111111101110110 0
b11111101110000 P
b10011001 ^
b101000010000000010011001 l
b10100001 ."
b10100001 <"
b10100001 J"
#77
b11111101110000 "
b11111111011111101111111101110000 0
b11111101111110 P
b10011101 ^
b100100010000000010011101 l
b10010001 ."
b10010001 <"
b10010001 J"
#78
b11111110010101 "
b11111111101011111111111110010101 0
b11111110101111 P
b1111101 ^
b10111100000000001111101 l
b1011110 ."
b1011110 <"
b1011110 J"
#79
b11111111010000 "
b11111111111110001111111111010000 0
b11111111111000 P
b111100 ^
b101110000000000111100 l
b10111 ."
b10111 <"
b10111 J"
#80
b100011 "
b10010000000000000100011 0
b1001000 P
b11111111110000 ^
b11111111110010001111111111110000 l
b11111111001000 ."
b11111111001000 <"
b11111111001000 J"
#81
b1101001 "
b100001100000000001101001 0
b10000110 P
b11111110100110 ^
b11111111100010011111111110100110 l
b11111110001001 ."
b11111110001001 <"
b11111110001001 J"
#82
b10011100 "
b101010010000000010011100 0
b10101001 P
b11111101110101 ^
b11111111011001101111111101110101 l
b11111101100110 ."
b11111101100110 <"
b11111101100110 J"
#83
b10101011 "
b101001010000000010101011 0
b10100101 P
b11111101100100 ^
b11111111011011111111111101100100 l
b11111101101111 ."
b11111101101111 <"
b11111101101111 J"
#84
b10010010 "
b11110000000000010010010 0
b1111000 P
b11111101111110 ^
b11111111100111001111111101111110 l
b11111110011100 ."
b11111110011100 <"
b11111110011100 J"
#85
b1011010 "
b1101000000000001011010 0
b110100 P
b11111110110111 ^
b11111111110110011111111110110111 l
b11111111011001 ."
b11111111011001 <"
b11111111011001 J"
#86
b1111 "
b11111111111001100000000000001111 0
b11111111100110 P
b11 ^
b1010000000000000000011 l
b101000 ."
b101000 <"
b101000 J"
#87
b11111111000001 "
b11111111100111111111111111000001 0
b11111110011111 P
b1010010 ^
b11011100000000001010010 l
b1101110 ."
b1101110 <"
b1101110 J"
#88
b11111110000101 "
b11111111011101101111111110000101 0
b11111101110110 P
b10001011 ^
b100110010000000010001011 l
b10011001 ."
b10011001 <"
b10011001 J"
#89
b11111101101101 "
b11111111011100011111111101101101 0
b11111101110001 P
b10011111 ^
b100111110000000010011111 l
b10011111 ."
b10011111 <"
b10011111 J"
#90
b11111101111111 "
b11111111100100111111111101111111 0
b11111110010011 P
b10001111 ^
b11111000000000010001111 l
b1111100 ."
b1111100 <"
b1111100 J"
#91
b11111110110000 "
b11111111110100111111111110110000 0
b11111111010011 P
b1011111 ^
b1111000000000001011111 l
b111100 ."
b111100 <"
b111100 J"
#92
b11111111111100 "
b1000111111111111111100 0
b100011 P
b10110 ^
b11111111111100100000000000010110 l
b11111111110010 ."
b11111111110010 <"
b11111111110010 J"
#93
b1001011 "
b11010000000000001001011 0
b1101000 P
b11111111001000 ^
b11111111101001111111111111001000 l
b11111110100111 ."
b11111110100111 <"
b11111110100111 J"
#94
b10000101 "
b100110100000000010000101 0
b10011010 P
b11111110000111 ^
b11111111011101001111111110000111 l
b11111101110100 ."
b11111101110100 <"
b11111101110100 J"
#95
b10101001 "
b101010010000000010101001 0
b10101001 P
b11111101101000 ^
b11111111011001101111111101101000 l
b11111101100110 ."
b11111101100110 <"
b11111101100110 J"
#96
b10100101 "
b100100100000000010100101 0
b10010010 P
b11111101110001 ^
b11111111011111111111111101110001 l
b11111101111111 ."
b11111101111111 <"
b11111101111111 J"
#97
b1111010 "
b10110100000000001111010 0
b1011010 P
b11111110010111 ^
b11111111101101111111111110010111 l
b11111110110111 ."
b11111110110111 <"
b11111110110111 J"
#98
b110100 "
b11100000000000110100 0
b1110 P
b11111111011100 ^
b111111111111011100 l
b11 ."
b11 <"
b11 J"
#99
b11111111100110 "
b11111111101111111111111111100110 0
b11111110111111 P
b101010 ^
b10011010000000000101010 l
b1001101 ."
b1001101 <"
b1001101 J"
#100
b11111110011111 "
b11111111100001101111111110011111 0
b11111110000110 P
b1101111 ^
b100010000000000001101111 l
b10001000 ."
b10001000 <"
b10001000 J"
#101
b11111101110110 "
b11111111011011111111111101110110 0
b11111101101111 P
b10011000 ^
b100111110000000010011000 l
b10011111 ."
b10011111 <"
b10011111 J"
#102
b11111101101111 "
b11111111100000001111111101101111 0
b11111110000000 P
b10011111 ^
b100100010000000010011111 l
b10010001 ."
b10010001 <"
b10010001 J"
#103
b11111110010010 "
b11111111101100111111111110010010 0
b11111110110011 P
b1111010 ^
b10111110000000001111010 l
b1011111 ."
b1011111 <"
b1011111 J"
#104
b11111111010100 "
b11111111111110101111111111010100 0
b11111111111010 P
b111001 ^
b101100000000000111001 l
b10110 ."
b10110 <"
b10110 J"
#105
b100000 "
b10010000000000000100000 0
b1001000 P
b11111111101111 ^
b11111111110010001111111111101111 l
b11111111001000 ."
b11111111001000 <"
b11111111001000 J"
#106
b1101011 "
b100001100000000001101011 0
b10000110 P
b11111110100100 ^
b11111111100010101111111110100100 l
b11111110001010 ."
b11111110001010 <"
b11111110001010 J"
#107
b10011111 "
b101001110000000010011111 0
b10100111 P
b11111101110100 ^
b11111111011010001111111101110100 l
b11111101101000 ."
b11111101101000 <"
b11111101101000 J"
#108
b10101000 "
b101001010000000010101000 0
b10100101 P
b11111101100101 ^
b11111111011011111111111101100101 l
b11111101101111 ."
b11111101101111 <"
b11111101101111 J"
#109
b10010000 "
b11110000000000010010000 0
b1111000 P
b11111101111011 ^
b11111111100101111111111101111011 l
b11111110010111 ."
b11111110010111 <"
b11111110010111 J"
#110
b1010101 "
b1101010000000001010101 0
b110101 P
b11111110111000 ^
b11111111110110111111111110111000 l
b11111111011011 ."
b11111111011011 <"
b11111111011011 J"
#111
b1010 "
b11111111111000110000000000001010 0
b11111111100011 P
b100 ^
b1010110000000000000100 l
b101011 ."
b101011 <"
b101011 J"
#112
b11111111000000 "
b11111111100111101111111111000000 0
b11111110011110 P
b1010000 ^
b11100010000000001010000 l
b1110001 ."
b1110001 <"
b1110001 J"
#113
b11111110000111 "
b11111111011101111111111110000111 0
b11111101110111 P
b10001011 ^
b100111000000000010001011 l
b10011100 ."
b10011100 <"
b10011100 J"
#114
b11111101110010 "
b11111111011100001111111101110010 0
b11111101110000 P
b10100100 ^
b100111100000000010100100 l
b10011110 ."
b10011110 <"
b10011110 J"
#115
b11111101111100 "
b11111111100100011111111101111100 0
b11111110010001 P
b10010000 ^
b11110110000000010010000 l
b1111011 ."
b1111011 <"
b1111011 J"
#116
b11111110110000 "
b11111111110100101111111110110000 0
b11111111010010 P
b1100001 ^
b1111100000000001100001 l
b111110 ."
b111110 <"
b111110 J"
#117
b11111111111010 "
b111101111111111111010 0
b11110 P
b10111 ^
b11111111111100000000000000010111 l
b11111111110000 ."
b11111111110000 <"
b11111111110000 J"
#118
b1000111 "
b11010100000000001000111 0
b1101010 P
b11111111000111 ^
b11111111101001101111111111000111 l
b11111110100110 ."
b11111110100110 <"
b11111110100110 J"
#119
b10000110 "
b100110100000000010000110 0
b10011010 P
b11111110001010 ^
b11111111011101111111111110001010 l
b11111101110111 ."
b11111101110111 <"
b11111101110111 J"
#120
b10101000 "
b101010100000000010101000 0
b10101010 P
b11111101100111 ^
b11111111011001001111111101100111 l
b11111101100100 ."
b11111101100100 <"
b11111101100100 J"
#121
b10100110 "
b100100100000000010100110 0
b10010010 P
b11111101101110 ^
b11111111100000001111111101101110 l
b11111110000000 ."
b11111110000000 <"
b11111110000000 J"
#122
b1111010 "
b10101110000000001111010 0
b1010111 P
b11111110010111 ^
b11111111101110101111111110010111 l
b11111110111010 ."
b11111110111010 <"
b11111110111010 J"
#123
b110100 "
b10110000000000110100 0
b1011 P
b11111111011010 ^
b1001111111111011010 l
b100 ."
b100 <"
b100 J"
#124
b11111111100111 "
b11111111101111101111111111100111 0
b11111110111110 P
b101100 ^
b10011100000000000101100 l
b1001110 ."
b1001110 <"
b1001110 J"
#125
b11111110100000 "
b11111111100001011111111110100000 0
b11111110000101 P
b1101101 ^
b100001010000000001101101 l
b10000101 ."
b10000101 <"
b10000101 J"
#126
b11111101110110 "
b11111111011011011111111101110110 0
b11111101101101 P
b10011000 ^
b100111110000000010011000 l
b10011111 ."
b10011111 <"
b10011111 J"
#127
b11111101110011 "
b11111111011111011111111101110011 0
b11111101111101 P
b10011111 ^
b100100100000000010011111 l
b10010010 ."
b10010010 <"
b10010010 J"
#128
b11111110010100 "
b11111111101011101111111110010100 0
b11111110101110 P
b1111010 ^
b10111100000000001111010 l
b1011110 ."
b1011110 <"
b1011110 J"
#129
b11111111010101 "
b11111111111110101111111111010101 0
b11111111111010 P
b111110 ^
b101110000000000111110 l
b10111 ."
b10111 <"
b10111 J"
#130
b100010 "
b10010010000000000100010 0
b1001001 P
b11111111101101 ^
b11111111110010001111111111101101 l
b11111111001000 ."
b11111111001000 <"
b11111111001000 J"
#131
b1101001 "
b100001110000000001101001 0
b10000111 P
b11111110100111 ^
b11111111100010101111111110100111 l
b11111110001010 ."
b11111110001010 <"
b11111110001010 J"
#132
b10011111 "
b101010010000000010011111 0
b10101001 P
b11111101110010 ^
b11111111011001111111111101110010 l
b11111101100111 ."
b11111101100111 <"
b11111101100111 J"
#133
b10101100 "
b101000110000000010101100 0
b10100011 P
b11111101100011 ^
b11111111011011101111111101100011 l
b11111101101110 ."
b11111101101110 <"
b11111101101110 J"
#134
b10010000 "
b11111000000000010010000 0
b1111100 P
b11111110000001 ^
b11111111100101111111111110000001 l
b11111110010111 ."
b11111110010111 <"
b11111110010111 J"
#135
b1011000 "
b1100010000000001011000 0
b110001 P
b11111110110111 ^
b11111111110111111111111110110111 l
b11111111011111 ."
b11111111011111 <"
b11111111011111 J"
#136
b1010 "
b11111111111000110000000000001010 0
b11111111100011 P
b100 ^
b1011110000000000000100 l
b101111 ."
b101111 <"
b101111 J"
#137
b11111110111111 "
b11111111100111111111111110111111 0
b11111110011111 P
b1010000 ^
b11100000000000001010000 l
b1110000 ."
b1110000 <"
b1110000 J"
#138
b11111110001000 "
b11111111011101011111111110001000 0
b11111101110101 P
b10001000 ^
b100110010000000010001000 l
b10011001 ."
b10011001 <"
b10011001 J"
#139
b11111101101111 "
b11111111011100001111111101101111 0
b11111101110000 P
b10011100 ^
b100111010000000010011100 l
b10011101 ."
b10011101 <"
b10011101 J"
#140
b11111101111110 "
b11111111100101011111111101111110 0
b11111110010101 P
b10001111 ^
b11110100000000010001111 l
b1111010 ."
b1111010 <"
b1111010 J"
#141
b11111110101110 "
b11111111110100011111111110101110 0
b11111111010001 P
b1011011 ^
b1111010000000001011011 l
b111101 ."
b111101 <"
b111101 J"
#142
b11111111111001 "
b1001001111111111111001 0
b100100 P
b11000 ^
b11111111111011100000000000011000 l
b11111111101110 ."
b11111111101110 <"
b11111111101110 J"
#143
b1001000 "
b11010110000000001001000 0
b1101011 P
b11111111000110 ^
b11111111101000111111111111000110 l
b11111110100011 ."
b11111110100011 <"
b11111110100011 J"
#144
b10000111 "
b100110100000000010000111 0
b10011010 P
b11111110001001 ^
b11111111011101011111111110001001 l
b11111101110101 ."
b11111101110101 <"
b11111101110101 J"
#145
b10101010 "
b101010100000000010101010 0
b10101010 P
b11111101101001 ^
b11111111011001011111111101101001 l
b11111101100101 ."
b11111101100101 <"
b11111101100101 J"
#146
b10100111 "
b100100000000000010100111 0
b10010000 P
b11111101101110 ^
b11111111011111111111111101101110 l
b11111101111111 ."
b11111101111111 <"
b11111101111111 J"
#147
b1111000 "
b10110110000000001111000 0
b1011011 P
b11111110011000 ^
b11111111101101011111111110011000 l
b11111110110101 ."
b11111110110101 <"
b11111110110101 J"
#148
b110101 "
b10110000000000110101 0
b1011 P
b11111111011110 ^
b1011111111111011110 l
b101 ."
b101 <"
b101 J"
#149
b11111111100101 "
b11111111110000011111111111100101 0
b11111111000001 P
b101010 ^
b10100010000000000101010 l
b1010001 ."
b1010001 <"
b1010001 J"
#150
b11111110100000 "
b11111111100001101111111110100000 0
b11111110000110 P
b1110001 ^
b100010000000000001110001 l
b10001000 ."
b10001000 <"
b10001000 J"
#151
b11111101110110 "
b11111111011011011111111101110110 0
b11111101101101 P
b10011000 ^
b100111100000000010011000 l
b10011110 ."
b10011110 <"
b10011110 J"
#152
b11111101110000 "
b11111111011111101111111101110000 0
b11111101111110 P
b10100000 ^
b100100100000000010100000 l
b10010010 ."
b10010010 <"
b10010010 J"
#153
b11111110010110 "
b11111111101011011111111110010110 0
b11111110101101 P
b1111000 ^
b11000010000000001111000 l
b1100001 ."
b1100001 <"
b1100001 J"
#154
b11111111010001 "
b11111111111110011111111111010001 0
b11111111111001 P
b111100 ^
b110100000000000111100 l
b11010 ."
b11010 <"
b11010 J"
#155
b100000 "
b10001110000000000100000 0
b1000111 P
b11111111101110 ^
b11111111110001111111111111101110 l
b11111111000111 ."
b11111111000111 <"
b11111111000111 J"
#156
b1101010 "
b100001010000000001101010 0
b10000101 P
b11111110100011 ^
b11111111100010011111111110100011 l
b11111110001001 ."
b11111110001001 <"
b11111110001001 J"
#157
b10011010 "
b101010000000000010011010 0
b10101000 P
b11111101110011 ^
b11111111011001101111111101110011 l
b11111101100110 ."
b11111101100110 <"
b11111101100110 J"
#158
b10101011 "
b101001010000000010101011 0
b10100101 P
b11111101100101 ^
b11111111011011011111111101100101 l
b11111101101101 ."
b11111101101101 <"
b11111101101101 J"
#159
b10010000 "
b11110000000000010010000 0
b1111000 P
b11111101111110 ^
b11111111100101101111111101111110 l
b11111110010110 ."
b11111110010110 <"
b11111110010110 J"
#160
b1011000 "
b1100100000000001011000 0
b110010 P
b11111110111000 ^
b11111111110111011111111110111000 l
b11111111011101 ."
b11111111011101 <"
b11111111011101 J"
#161
b1001 "
b11111111111000110000000000001001 0
b11111111100011 P
b1 ^
b1010110000000000000001 l
b101011 ."
b101011 <"
b101011 J"
#162
b11111110111110 "
b11111111101000001111111110111110 0
b11111110100000 P
b1010001 ^
b11011100000000001010001 l
b1101110 ."
b1101110 <"
b1101110 J"
#163
b11111110000101 "
b11111111011101011111111110000101 0
b11111101110101 P
b10000111 ^
b100110100000000010000111 l
b10011010 ."
b10011010 <"
b10011010 J"
#164
b11111101101110 "
b11111111011100101111111101101110 0
b11111101110010 P
b10100000 ^
b100111100000000010100000 l
b10011110 ."
b10011110 <"
b10011110 J"
#165
b11111101111101 "
b11111111100101011111111101111101 0
b11111110010101 P
b10010001 ^
b11111100000000010010001 l
b1111110 ."
b1111110 <"
b1111110 J"
#166
b11111110110000 "
b11111111110100011111111110110000 0
b11111111010001 P
b1011110 ^
b1111100000000001011110 l
b111110 ."
b111110 <"
b111110 J"
#167
b11111111111010 "
b1000011111111111111010 0
b100001 P
b10110 ^
b11111111111011110000000000010110 l
b11111111101111 ."
b11111111101111 <"
b11111111101111 J"
#168
b1001010 "
b11010010000000001001010 0
b1101001 P
b11111111001001 ^
b11111111101001011111111111001001 l
b11111110100101 ."
b11111110100101 <"
b11111110100101 J"
#169
b10000100 "
b100110010000000010000100 0
b10011001 P
b11111110001000 ^
b11111111011101001111111110001000 l
b11111101110100 ."
b11111101110100 <"
b11111101110100 J"
#170
b10100111 "
b101010110000000010100111 0
b10101011 P
b11111101100111 ^
b11111111011001011111111101100111 l
b11111101100101 ."
b11111101100101 <"
b11111101100101 J"
#171
b10100010 "
b100100010000000010100010 0
b10010001 P
b11111101110000 ^
b11111111100000001111111101110000 l
b11111110000000 ."
b11111110000000 <"
b11111110000000 J"
#172
b1110111 "
b10101010000000001110111 0
b1010101 P
b11111110011000 ^
b11111111101101111111111110011000 l
b11111110110111 ."
b11111110110111 <"
b11111110110111 J"
#173
b110011 "
b11000000000000110011 0
b1100 P
b11111111011101 ^
b111111111111011101 l
b11 ."
b11 <"
b11 J"
#174
b11111111100100 "
b11111111101111001111111111100100 0
b11111110111100 P
b101010 ^
b10100000000000000101010 l
b1010000 ."
b1010000 <"
b1010000 J"
#175
b11111110011111 "
b11111111100001111111111110011111 0
b11111110000111 P
b1101101 ^
b100010100000000001101101 l
b10001010 ."
b10001010 <"
b10001010 J"
#176
b11111101110101 "
b11111111011011011111111101110101 0
b11111101101101 P
b10010111 ^
b100111010000000010010111 l
b10011101 ."
b10011101 <"
b10011101 J"
