projects/fmcjesdadc1/kc705/.Xil/Vivado-14840-CI-89/hw_ila_data_1/zip_work/waveform.vcd
$date
        2021-Dec-17 11:16:52
$end
$version
        Vivado v2019.1 (64-bit)
$end
$timescale
        1ps
$end
$scope module dut $end
$var reg 1 " i_system_wrapper/system_i/util_fmcjesdadc1_xcvr_rx_out_clk_0 $end
$var reg 32 # i_system_wrapper/system_i/axi_ad9250_core_adc_data_a [31:0] $end
$var reg 14 C data_a_high [13:0] $end
$var reg 32 Q i_system_wrapper/system_i/axi_ad9250_core_adc_data_b [31:0] $end
$var reg 1 q i_system_wrapper/system_i/axi_ad9250_core_rx_ready $end
$var reg 1 r i_system_wrapper/system_i/axi_ad9250_core_adc_clk $end
$var reg 1 s i_system_wrapper/system_i/axi_ad9250_core_adc_valid_a $end
$var reg 1 t _TRIGGER $end
$var reg 1 u _WINDOW $end
$var reg 1 v _GAP $end
$upscope $end
$enddefinitions $end
#0
$dumpvars
0"
b101011010000000001101101 #
b10101101 C
b11111111011001111111111110100110 Q
1q
0r
1s
1t
1u
0v
$end
#1
b1000110000000010001101 #
b100011 C
b11111111111010111111111110000011 Q
#2
b11111111011011011111111110101100 #
b11111101101101 C
b101000110000000001100100 Q
#3
b11111111111110111111111110001111 #
b11111111111011 C
b110000000000010000101 Q
#4
b101010100000000001110011 #
b10101010 C
b11111111011001001111111110100111 Q
#5
b1001000000000010001101 #
b100100 C
b11111111111100001111111110000101 Q
#6
b11111111011011101111111110101101 #
b11111101101110 C
b101001010000000001100001 Q
#7
b11111111111101111111111110001100 #
b11111111110111 C
b101110000000010000011 Q
#8
b101011000000000001101011 #
b10101100 C
b11111111011001111111111110100101 Q
#9
b1000110000000010001111 #
b100011 C
b11111111111011001111111110000100 Q
#10
b11111111011011111111111110101110 #
b11111101101111 C
b101000010000000001100011 Q
#11
b11111111111101111111111110010000 #
b11111111110111 C
b101010000000010000001 Q
#12
b101011000000000001101101 #
b10101100 C
b11111111011001011111111110100010 Q
#13
b1000110000000010001001 #
b100011 C
b11111111111011101111111110000010 Q
#14
b11111111011011001111111110101101 #
b11111101101100 C
b101001010000000001100100 Q
#15
b11111111111101011111111110001100 #
b11111111110101 C
b111000000000010000011 Q
#16
b101010110000000001101100 #
b10101011 C
b11111111011010001111111110100101 Q
#17
b1001010000000010001100 #
b100101 C
b11111111111011001111111110000101 Q
#18
b11111111011011111111111110110000 #
b11111101101111 C
b101000000000000001100010 Q
#19
b11111111111110001111111110001111 #
b11111111111000 C
b101010000000010000110 Q
#20
b101010110000000001101111 #
b10101011 C
b11111111011001001111111110100000 Q
#21
b1000100000000010001101 #
b100010 C
b11111111111100001111111110000011 Q
#22
b11111111011100001111111110101011 #
b11111101110000 C
b101000010000000001100101 Q
#23
b11111111111110001111111110001011 #
b11111111111000 C
b110100000000010000011 Q
#24
b101011100000000001110000 #
b10101110 C
b11111111011001011111111110100101 Q
#25
b1001010000000010001101 #
b100101 C
b11111111111010111111111110001000 Q
#26
b11111111011100011111111110101001 #
b11111101110001 C
b101000010000000001100001 Q
#27
b11111111111101101111111110001110 #
b11111111110110 C
b110000000000010000100 Q
#28
b101011010000000001101100 #
b10101101 C
b11111111011001101111111110100110 Q
#29
b1001010000000010001001 #
b100101 C
b11111111111011101111111110000010 Q
#30
b11111111011011111111111110101110 #
b11111101101111 C
b101000110000000001100110 Q
#31
b11111111111101011111111110001110 #
b11111111110101 C
b111100000000010000101 Q
#32
b101011010000000001101011 #
b10101101 C
b11111111011001101111111110100011 Q
#33
b1000010000000010001101 #
b100001 C
b11111111111011101111111110000100 Q
#34
b11111111011011101111111110110001 #
b11111101101110 C
b101000000000000001100100 Q
#35
b11111111111110001111111110001111 #
b11111111111000 C
b110100000000010000000 Q
#36
b101010110000000001101101 #
b10101011 C
b11111111011001011111111110100100 Q
#37
b1000110000000010001101 #
b100011 C
b11111111111011001111111110000011 Q
#38
b11111111011100011111111110101011 #
b11111101110001 C
b101000010000000001100001 Q
#39
b11111111111110011111111110001111 #
b11111111111001 C
b110100000000010000010 Q
#40
b101010110000000001110000 #
b10101011 C
b11111111011010001111111110100101 Q
#41
b1001010000000010001101 #
b100101 C
b11111111111011101111111110000111 Q
#42
b11111111011011001111111110101110 #
b11111101101100 C
b101000010000000001100010 Q
#43
b11111111111101011111111110001111 #
b11111111110101 C
b101000000000010000100 Q
#44
b101011010000000001101110 #
b10101101 C
b11111111011001011111111110100011 Q
#45
b1000010000000010001101 #
b100001 C
b11111111111011111111111110000100 Q
#46
b11111111011100001111111110101100 #
b11111101110000 C
b101001010000000001100001 Q
#47
b11111111111110011111111110001011 #
b11111111111001 C
b110110000000010000010 Q
#48
b101010100000000001101111 #
b10101010 C
b11111111011001011111111110100010 Q
#49
b1000110000000010001101 #
b100011 C
b11111111111011011111111110000011 Q
#50
b11111111011100011111111110101111 #
b11111101110001 C
b101000010000000001100001 Q
#51
b11111111111110011111111110001100 #
b11111111111001 C
b111000000000010000010 Q
#52
b101011000000000001101111 #
b10101100 C
b11111111011001101111111110100101 Q
#53
b1000100000000010001110 #
b100010 C
b11111111111011101111111110000011 Q
#54
b11111111011100001111111110101111 #
b11111101110000 C
b100111110000000001100011 Q
#55
b11111111111110001111111110001111 #
b11111111111000 C
b110010000000010000011 Q
#56
b101011000000000001101110 #
b10101100 C
b11111111011010011111111110100110 Q
#57
b1001000000000010001100 #
b100100 C
b11111111111011001111111110000110 Q
#58
b11111111011011101111111110101111 #
b11111101101110 C
b101000100000000001100110 Q
#59
b11111111111110001111111110001101 #
b11111111111000 C
b110110000000010000101 Q
#60
b101011100000000001110000 #
b10101110 C
b11111111011001011111111110100100 Q
#61
b1001000000000010001100 #
b100100 C
b11111111111011111111111110000111 Q
#62
b11111111011011111111111110101111 #
b11111101101111 C
b101000010000000001100100 Q
#63
b11111111111110001111111110010000 #
b11111111111000 C
b111100000000010000001 Q
#64
b101011100000000001101101 #
b10101110 C
b11111111011001111111111110100101 Q
#65
b1000110000000010001101 #
b100011 C
b11111111111011111111111110000110 Q
#66
b11111111011100101111111110101111 #
b11111101110010 C
b101001000000000001100011 Q
#67
b11111111111110011111111110001111 #
b11111111111001 C
b110000000000010000010 Q
#68
b101010100000000001101101 #
b10101010 C
b11111111011010011111111110100100 Q
#69
b1001000000000010010000 #
b100100 C
b11111111111100101111111110000100 Q
#70
b11111111011100011111111110101101 #
b11111101110001 C
b101000110000000001100011 Q
#71
b11111111111110101111111110001110 #
b11111111111010 C
b111000000000010000011 Q
#72
b101011000000000001101101 #
b10101100 C
b11111111011001101111111110101000 Q
#73
b1000110000000010001010 #
b100011 C
b11111111111100001111111110000101 Q
#74
b11111111011100001111111110101100 #
b11111101110000 C
b101000110000000001100111 Q
#75
b11111111111110001111111110001100 #
b11111111111000 C
b110100000000010000110 Q
#76
b101011010000000001101110 #
b10101101 C
b11111111011001101111111110100011 Q
#77
b1001010000000010001110 #
b100101 C
b11111111111011011111111110000101 Q
#78
b11111111011011011111111110101111 #
b11111101101101 C
b101000100000000001100100 Q
#79
b11111111111110101111111110001111 #
b11111111111010 C
b101100000000010000011 Q
#80
b101100000000000001101111 #
b10110000 C
b11111111011001111111111110100001 Q
#81
b1000110000000010001100 #
b100011 C
b11111111111011101111111110000101 Q
#82
b11111111011100111111111110101101 #
b11111101110011 C
b100111110000000001100101 Q
#83
b11111111111101111111111110001111 #
b11111111110111 C
b110110000000010000010 Q
#84
b101010110000000001101111 #
b10101011 C
b11111111011001011111111110100011 Q
#85
b1001000000000010001111 #
b100100 C
b11111111111011011111111110000011 Q
#86
b11111111011100001111111110101110 #
b11111101110000 C
b101000010000000001100001 Q
#87
b11111111111110001111111110001110 #
b11111111111000 C
b110100000000010000010 Q
#88
b101010110000000001101111 #
b10101011 C
b11111111011000101111111110100011 Q
#89
b1000100000000010010000 #
b100010 C
b11111111111011101111111110000110 Q
#90
b11111111011100011111111110101110 #
b11111101110001 C
b101000100000000001100010 Q
#91
b11111111111110001111111110001110 #
b11111111111000 C
b110010000000010000011 Q
#92
b101011000000000001101101 #
b10101100 C
b11111111011001101111111110100011 Q
#93
b1001100000000010001101 #
b100110 C
b11111111111011011111111110000101 Q
#94
b11111111011011111111111110110000 #
b11111101101111 C
b101000000000000001100011 Q
#95
b11111111111110011111111110001110 #
b11111111111001 C
b110110000000010000100 Q
#96
b101011110000000001110001 #
b10101111 C
b11111111011001101111111110100110 Q
#97
b1001010000000010001110 #
b100101 C
b11111111111011101111111110000100 Q
#98
b11111111011011111111111110110000 #
b11111101101111 C
b101000010000000001100010 Q
#99
b11111111111110001111111110001111 #
b11111111111000 C
b110000000000010000001 Q
#100
b101010110000000001110001 #
b10101011 C
b11111111011001111111111110100010 Q
#101
b1001100000000010001101 #
b100110 C
b11111111111011001111111110000100 Q
#102
b11111111011011101111111110101101 #
b11111101101110 C
b100111110000000001100010 Q
#103
b11111111111110001111111110001101 #
b11111111111000 C
b110100000000010000001 Q
#104
b101100000000000001101101 #
b10110000 C
b11111111011001101111111110100100 Q
#105
b1001100000000010010000 #
b100110 C
b11111111111011101111111110000110 Q
#106
b11111111011100011111111110101101 #
b11111101110001 C
b101000100000000001100000 Q
#107
b11111111111110011111111110001100 #
b11111111111001 C
b110000000000010000110 Q
#108
b101011100000000001101100 #
b10101110 C
b11111111011001101111111110100001 Q
#109
b1000010000000010001111 #
b100001 C
b11111111111011111111111110000100 Q
#110
b11111111011100001111111110101111 #
b11111101110000 C
b101000010000000001100100 Q
#111
b11111111111110011111111110001101 #
b11111111111001 C
b110100000000010000100 Q
#112
b101010100000000001101110 #
b10101010 C
b11111111011001101111111110100010 Q
#113
b1001000000000010001101 #
b100100 C
b11111111111011001111111110000100 Q
#114
b11111111011011101111111110110000 #
b11111101101110 C
b100111110000000001100011 Q
#115
b11111111111110101111111110010000 #
b11111111111010 C
b110110000000010000010 Q
#116
b101010110000000001101111 #
b10101011 C
b11111111011001111111111110100011 Q
#117
b1000000000000010001111 #
b100000 C
b11111111111010101111111110000011 Q
#118
b11111111011011101111111110110000 #
b11111101101110 C
b101000110000000001100010 Q
#119
b11111111111101111111111110001110 #
b11111111110111 C
b110100000000010000001 Q
#120
b101011000000000001101110 #
b10101100 C
b11111111011010001111111110100101 Q
#121
b1001010000000010010000 #
b100101 C
b11111111111011001111111110000010 Q
#122
b11111111011100011111111110101101 #
b11111101110001 C
b101000010000000001100100 Q
#123
b11111111111110001111111110001110 #
b11111111111000 C
b110000000000010000100 Q
#124
b101011100000000001101110 #
b10101110 C
b11111111011001101111111110100001 Q
#125
b1000100000000010001110 #
b100010 C
b11111111111011011111111110000100 Q
#126
b11111111011011011111111110101101 #
b11111101101101 C
b101000010000000001100001 Q
#127
b11111111111101101111111110001110 #
b11111111110110 C
b110010000000010000011 Q
#128
b101010110000000001101101 #
b10101011 C
b11111111011001011111111110100011 Q
#129
b1001100000000010001110 #
b100110 C
b11111111111010101111111110000110 Q
#130
b11111111011011111111111110101101 #
b11111101101111 C
b100111100000000001100011 Q
#131
b11111111111101101111111110001101 #
b11111111110110 C
b110110000000010000010 Q
#132
b101011110000000001101110 #
b10101111 C
b11111111011000111111111110100011 Q
#133
b1001010000000010001001 #
b100101 C
b11111111111010011111111110000101 Q
#134
b11111111011011111111111110101100 #
b11111101101111 C
b101000000000000001100001 Q
#135
b11111111111101011111111110001110 #
b11111111110101 C
b110100000000010000101 Q
#136
b101011010000000001101101 #
b10101101 C
b11111111011000101111111110100001 Q
#137
b1000110000000010001011 #
b100011 C
b11111111111100001111111110000110 Q
#138
b11111111011100011111111110101110 #
b11111101110001 C
b101001000000000001100011 Q
#139
b11111111111110011111111110001111 #
b11111111111001 C
b110010000000010000001 Q
#140
b101011100000000001101100 #
b10101110 C
b11111111011001101111111110100011 Q
#141
b1000110000000010001011 #
b100011 C
b11111111111100001111111110000001 Q
#142
b11111111011100001111111110101101 #
b11111101110000 C
b100111110000000001100100 Q
#143
b11111111111110011111111110001111 #
b11111111111001 C
b110110000000010000100 Q
#144
b101011010000000001101101 #
b10101101 C
b11111111011010001111111110100010 Q
#145
b1001010000000010001101 #
b100101 C
b11111111111011011111111110000101 Q
#146
b11111111011100001111111110101101 #
b11111101110000 C
b101000100000000001100101 Q
#147
b11111111111101111111111110001011 #
b11111111110111 C
b110100000000010000011 Q
#148
b101011000000000001101110 #
b10101100 C
b11111111011001101111111110100110 Q
#149
b1001000000000010001101 #
b100100 C
b11111111111011001111111110000111 Q
#150
b11111111011011101111111110101010 #
b11111101101110 C
b101000010000000001100010 Q
#151
b11111111111110011111111110001110 #
b11111111111001 C
b110010000000010000010 Q
#152
b101010110000000001101101 #
b10101011 C
b11111111011001011111111110100010 Q
#153
b1000110000000010001100 #
b100011 C
b11111111111011101111111110000010 Q
#154
b11111111011100001111111110101111 #
b11111101110000 C
b101000100000000001100010 Q
#155
b11111111111110001111111110001101 #
b11111111111000 C
b110010000000010000100 Q
#156
b101011100000000001101110 #
b10101110 C
b11111111011010001111111110100010 Q
#157
b1000110000000010001111 #
b100011 C
b11111111111100001111111110000011 Q
#158
b11111111011100001111111110101100 #
b11111101110000 C
b101000010000000001100010 Q
#159
b11111111111110011111111110001111 #
b11111111111001 C
b110110000000010000011 Q
#160
b101011010000000001110000 #
b10101101 C
b11111111011010001111111110100011 Q
#161
b1001100000000010001110 #
b100110 C
b11111111111011001111111110000011 Q
#162
b11111111011011111111111110101101 #
b11111101101111 C
b101000100000000001100010 Q
#163
b11111111111110101111111110001110 #
b11111111111010 C
b110110000000010000010 Q
#164
b101011000000000001110001 #
b10101100 C
b11111111011001101111111110100011 Q
#165
b1000110000000010001110 #
b100011 C
b11111111111011011111111110000011 Q
#166
b11111111011100011111111110101111 #
b11111101110001 C
b101001000000000001100010 Q
#167
b11111111111110011111111110001100 #
b11111111111001 C
b110100000000010000001 Q
#168
b101010110000000001101110 #
b10101011 C
b11111111011001101111111110100100 Q
#169
b1001010000000010010001 #
b100101 C
b11111111111011111111111110000100 Q
#170
b11111111011100011111111110101110 #
b11111101110001 C
b101000010000000001100101 Q
#171
b11111111111101111111111110001110 #
b11111111110111 C
b110010000000010000001 Q
#172
b101011100000000001110000 #
b10101110 C
b11111111011001011111111110100011 Q
#173
b1001000000000010001101 #
b100100 C
b11111111111011011111111110000110 Q
#174
b11111111011100011111111110101111 #
b11111101110001 C
b101000110000000001100011 Q
#175
b11111111111110011111111110001110 #
b11111111111001 C
b110110000000010000100 Q
#176
b101011000000000001101101 #
b10101100 C
b11111111011001111111111110100011 Q
#177
b1001010000000010001110 #
b100101 C
b11111111111011101111111110000110 Q
#178
b11111111011100101111111110101101 #
b11111101110010 C
b101000010000000001100100 Q
#179
b11111111111101101111111110001111 #
b11111111110110 C
b110100000000010000010 Q
#180
b101010100000000001101111 #
b10101010 C
b11111111011001101111111110100011 Q
#181
b1001110000000010010001 #
b100111 C
b11111111111011011111111110000101 Q
#182
b11111111011100011111111110101101 #
b11111101110001 C
b100111010000000001011111 Q
#183
b11111111111101111111111110001111 #
b11111111110111 C
b111010000000010000010 Q
#184
b101011000000000001101100 #
b10101100 C
b11111111011001001111111110100101 Q
#185
b1001100000000010001110 #
b100110 C
b11111111111011011111111110000100 Q
#186
b11111111011100011111111110101111 #
b11111101110001 C
b100111110000000001100010 Q
#187
b11111111111101101111111110001011 #
b11111111110110 C
b111010000000010000100 Q
#188
b101011000000000001101111 #
b10101100 C
b11111111011001101111111110100101 Q
#189
b1000100000000010001110 #
b100010 C
b11111111111011001111111110000010 Q
#190
b11111111011100011111111110101111 #
b11111101110001 C
b101000010000000001100011 Q
#191
b11111111111110111111111110001101 #
b11111111111011 C
b101110000000010000100 Q
#192
b101011000000000001110000 #
b10101100 C
b11111111011000111111111110100000 Q
#193
b1001000000000010001101 #
b100100 C
b11111111111011011111111110000010 Q
#194
b11111111011011111111111110101110 #
b11111101101111 C
b101000100000000001100000 Q
#195
b11111111111110011111111110001110 #
b11111111111001 C
b110110000000010000100 Q
#196
b101011000000000001101100 #
b10101100 C
b11111111011001101111111110100100 Q
#197
b1000100000000010001101 #
b100010 C
b11111111111011101111111110000101 Q
#198
b11111111011100001111111110110001 #
b11111101110000 C
b100111110000000001100001 Q
#199
b11111111111110011111111110010000 #
b11111111111001 C
b110110000000010000010 Q
#200
b101011110000000001101101 #
b10101111 C
b11111111011000111111111110100100 Q
#201
b1000110000000010001101 #
b100011 C
b11111111111011101111111110000100 Q
#202
b11111111011011011111111110101111 #
b11111101101101 C
b101000000000000001011111 Q
#203
b11111111111110011111111110010000 #
b11111111111001 C
b110100000000010000001 Q
#204
b101010100000000001101011 #
b10101010 C
b11111111011001001111111110100101 Q
#205
b1001100000000010001010 #
b100110 C
b11111111111011011111111110000101 Q
#206
b11111111011011111111111110110000 #
b11111101101111 C
b101000100000000001100010 Q
#207
b11111111111110001111111110001101 #
b11111111111000 C
b110100000000010000000 Q
#208
b101011010000000001101110 #
b10101101 C
b11111111011001111111111110100100 Q
#209
b1001000000000010001110 #
b100100 C
b11111111111011011111111110000111 Q
#210
b11111111011100001111111110110000 #
b11111101110000 C
b100111100000000001100010 Q
#211
b11111111111110001111111110001111 #
b11111111111000 C
b110000000000010000001 Q
#212
b101011000000000001110001 #
b10101100 C
b11111111011001011111111110100001 Q
#213
b1001110000000010010000 #
b100111 C
b11111111111011001111111110000101 Q
#214
b11111111011100011111111110101011 #
b11111101110001 C
b101000010000000001100011 Q
#215
b11111111111101111111111110001101 #
b11111111110111 C
b101100000000010000100 Q
#216
b101011000000000001101110 #
b10101100 C
b11111111011001101111111110100001 Q
#217
b1001010000000010001110 #
b100101 C
b11111111111011001111111110000100 Q
#218
b11111111011100101111111110101110 #
b11111101110010 C
b101000000000000001100100 Q
#219
b11111111111101111111111110001111 #
b11111111110111 C
b111000000000010000000 Q
#220
b101011000000000001110010 #
b10101100 C
b11111111011001001111111110100010 Q
#221
b1001010000000010001100 #
b100101 C
b11111111111011011111111110000010 Q
#222
b11111111011100101111111110101100 #
b11111101110010 C
b101000000000000001100001 Q
#223
b11111111111110001111111110001011 #
b11111111111000 C
b110100000000010000010 Q
#224
b101011010000000001101111 #
b10101101 C
b11111111011001011111111110100001 Q
#225
b1001000000000010001101 #
b100100 C
b11111111111011011111111110000110 Q
#226
b11111111011011101111111110101111 #
b11111101101110 C
b100111110000000001100100 Q
#227
b11111111111110001111111110001111 #
b11111111111000 C
b101100000000010000011 Q
#228
b101011100000000001101110 #
b10101110 C
b11111111011001011111111110100010 Q
#229
b1001110000000010001101 #
b100111 C
b11111111111011101111111110000011 Q
#230
b11111111011100101111111110101100 #
b11111101110010 C
b101000010000000001100101 Q
#231
b11111111111101111111111110010001 #
b11111111110111 C
b110110000000010000100 Q
#232
b101011110000000001110010 #
b10101111 C
b11111111011001011111111110100010 Q
#233
b1000110000000010001101 #
b100011 C
b11111111111011011111111110000011 Q
#234
b11111111011100001111111110110000 #
b11111101110000 C
b101000110000000001100010 Q
#235
b11111111111110001111111110001101 #
b11111111111000 C
b110010000000010000101 Q
#236
b101011010000000001101111 #
b10101101 C
b11111111011001101111111110100110 Q
#237
b1001110000000010001111 #
b100111 C
b11111111111011011111111110000100 Q
#238
b11111111011011111111111110101110 #
b11111101101111 C
b100111110000000001100010 Q
#239
b11111111111101101111111110001110 #
b11111111110110 C
b110000000000010000001 Q
#240
b101011010000000001101111 #
b10101101 C
b11111111011001101111111110100011 Q
#241
b1001100000000010001110 #
b100110 C
b11111111111010111111111110000011 Q
#242
b11111111011100101111111110110000 #
b11111101110010 C
b101000010000000001100001 Q
#243
b11111111111101111111111110001101 #
b11111111110111 C
b110010000000010000001 Q
#244
b101011010000000001101111 #
b10101101 C
b11111111011001111111111110100011 Q
#245
b1001100000000010001110 #
b100110 C
b11111111111010111111111110000010 Q
#246
b11111111011100011111111110110001 #
b11111101110001 C
b101000000000000001100010 Q
#247
b11111111111110001111111110001101 #
b11111111111000 C
b110010000000010000010 Q
#248
b101011110000000001101111 #
b10101111 C
b11111111011001101111111110100100 Q
#249
b1001000000000010001110 #
b100100 C
b11111111111011101111111110000011 Q
#250
b11111111011011001111111110110000 #
b11111101101100 C
b101000100000000001100011 Q
#251
b11111111111110011111111110001110 #
b11111111111001 C
b101110000000010000001 Q
#252
b101011000000000001110000 #
b10101100 C
b11111111011001011111111110100011 Q
#253
b1000100000000010001110 #
b100010 C
b11111111111011011111111110000100 Q
#254
b11111111011100001111111110101111 #
b11111101110000 C
b101000110000000001100011 Q
#255
b11111111111110001111111110010010 #
b11111111111000 C
b101110000000010000000 Q
#256
b101011000000000001101110 #
b10101100 C
b11111111011001101111111110100011 Q
#257
b1001010000000010001101 #
b100101 C
b11111111111011101111111110000011 Q
#258
b11111111011011111111111110110000 #
b11111101101111 C
b101000010000000001100011 Q
#259
b11111111111110011111111110001111 #
b11111111111001 C
b110100000000010000010 Q
#260
b101011000000000001110000 #
b10101100 C
b11111111011001101111111110100100 Q
#261
b1000110000000010001111 #
b100011 C
b11111111111011101111111110000101 Q
#262
b11111111011100001111111110101101 #
b11111101110000 C
b101001000000000001100101 Q
#263
b11111111111101111111111110001111 #
b11111111110111 C
b110110000000010000011 Q
#264
b101010110000000001101111 #
b10101011 C
b11111111011001111111111110100010 Q
#265
b1001000000000010001101 #
b100100 C
b11111111111011011111111110000110 Q
#266
b11111111011100001111111110101111 #
b11111101110000 C
b101000100000000001100101 Q
#267
b11111111111110001111111110001110 #
b11111111111000 C
b110100000000010000100 Q
#268
b101011110000000001110001 #
b10101111 C
b11111111011000101111111110100010 Q
#269
b1010000000000010001111 #
b101000 C
b11111111111011001111111110000111 Q
#270
b11111111011011101111111110110001 #
b11111101101110 C
b101000010000000001100011 Q
#271
b11111111111101111111111110001110 #
b11111111110111 C
b101110000000010000001 Q
#272
b101011000000000001101100 #
b10101100 C
b11111111011001011111111110100011 Q
#273
b1001010000000010001101 #
b100101 C
b11111111111011001111111110000010 Q
#274
b11111111011011101111111110101111 #
b11111101101110 C
b101000010000000001100011 Q
#275
b11111111111110111111111110001110 #
b11111111111011 C
b110100000000010000101 Q
#276
b101010100000000001101111 #
b10101010 C
b11111111011001011111111110100010 Q
#277
b1001000000000010001110 #
b100100 C
b11111111111011101111111110000011 Q
#278
b11111111011100011111111110101101 #
b11111101110001 C
b101000110000000001100100 Q
#279
b11111111111111001111111110010000 #
b11111111111100 C
b110000000000010000100 Q
#280
b101011000000000001110001 #
b10101100 C
b11111111011001001111111110100011 Q
#281
b1000010000000010001110 #
b100001 C
b11111111111011101111111110000100 Q
#282
b11111111011100001111111110101111 #
b11111101110000 C
b100111100000000001100001 Q
#283
b11111111111110011111111110001101 #
b11111111111001 C
b110000000000010000001 Q
#284
b101011000000000001101110 #
b10101100 C
b11111111011010001111111110100010 Q
#285
b1000110000000010001111 #
b100011 C
b11111111111011001111111110000011 Q
#286
b11111111011100101111111110101111 #
b11111101110010 C
b101000110000000001100001 Q
#287
b11111111111110011111111110001011 #
b11111111111001 C
b110000000000010000100 Q
#288
b101011000000000001101101 #
b10101100 C
b11111111011001101111111110100011 Q
#289
b1000100000000010001110 #
b100010 C
b11111111111100001111111110000100 Q
#290
b11111111011011011111111110110000 #
b11111101101101 C
b101000100000000001100011 Q
#291
b11111111111110101111111110001110 #
b11111111111010 C
b110100000000010000100 Q
#292
b101011100000000001110000 #
b10101110 C
b11111111011001101111111110100011 Q
#293
b1001010000000010001100 #
b100101 C
b11111111111011011111111110000101 Q
#294
b11111111011100001111111110101111 #
b11111101110000 C
b101001000000000001011111 Q
#295
b11111111111110101111111110001110 #
b11111111111010 C
b110110000000010000100 Q
#296
b101010110000000001101110 #
b10101011 C
b11111111011010001111111110100011 Q
#297
b1001100000000010001110 #
b100110 C
b11111111111010111111111110000101 Q
#298
b11111111011011101111111110101100 #
b11111101101110 C
b101000000000000001100001 Q
#299
b11111111111110001111111110001100 #
b11111111111000 C
b110100000000010000001 Q
#300
b101100000000000001101110 #
b10110000 C
b11111111011001111111111110100010 Q
#301
b1000110000000010001100 #
b100011 C
b11111111111011011111111110000101 Q
#302
b11111111011100011111111110110000 #
b11111101110001 C
b101000010000000001100011 Q
#303
b11111111111101111111111110001100 #
b11111111110111 C
b110110000000010000010 Q
#304
b101011000000000001110010 #
b10101100 C
b11111111011000111111111110100001 Q
#305
b1001100000000010001101 #
b100110 C
b11111111111011011111111110000011 Q
#306
b11111111011100011111111110110010 #
b11111101110001 C
b101000110000000001100100 Q
#307
b11111111111110101111111110001110 #
b11111111111010 C
b110100000000010000101 Q
#308
b101011010000000001101110 #
b10101101 C
b11111111011001111111111110100110 Q
#309
b1001010000000010001100 #
b100101 C
b11111111111010111111111110000100 Q
#310
b11111111011011101111111110101111 #
b11111101101110 C
b100111100000000001100101 Q
#311
b11111111111111011111111110001111 #
b11111111111101 C
b101010000000010000100 Q
#312
b101011100000000001110000 #
b10101110 C
b11111111011001101111111110101000 Q
#313
b1000010000000010001100 #
b100001 C
b11111111111011001111111110000101 Q
#314
b11111111011011011111111110101100 #
b11111101101101 C
b101000010000000001100000 Q
#315
b11111111111110011111111110001110 #
b11111111111001 C
b110000000000010000110 Q
#316
b101011100000000001101111 #
b10101110 C
b11111111011001101111111110100101 Q
#317
b1001110000000010001011 #
b100111 C
b11111111111100011111111110000101 Q
#318
b11111111011100001111111110101100 #
b11111101110000 C
b101000110000000001100011 Q
#319
b11111111111110001111111110001100 #
b11111111111000 C
b110100000000010000001 Q
#320
b101011110000000001101100 #
b10101111 C
b11111111011001011111111110100010 Q
#321
b1010010000000010001010 #
b101001 C
b11111111111011101111111110000110 Q
#322
b11111111011011111111111110110000 #
b11111101101111 C
b101000100000000001100001 Q
#323
b11111111111110001111111110001101 #
b11111111111000 C
b110110000000001111111 Q
#324
b101011010000000001110000 #
b10101101 C
b11111111011001101111111110100011 Q
#325
b1000010000000010001100 #
b100001 C
b11111111111010111111111110000111 Q
#326
b11111111011100101111111110101101 #
b11111101110010 C
b101000010000000001100101 Q
#327
b11111111111101101111111110010000 #
b11111111110110 C
b110100000000010000100 Q
#328
b101011010000000001101100 #
b10101101 C
b11111111011001011111111110100011 Q
#329
b1001010000000010001101 #
b100101 C
b11111111111011011111111110000111 Q
#330
b11111111011011101111111110101111 #
b11111101101110 C
b101000100000000001100010 Q
#331
b11111111111110101111111110001110 #
b11111111111010 C
b110100000000010000000 Q
#332
b101011100000000001101111 #
b10101110 C
b11111111011001101111111110100011 Q
#333
b1001000000000010001110 #
b100100 C
b11111111111011011111111110000011 Q
#334
b11111111011011101111111110101110 #
b11111101101110 C
b101000000000000001100001 Q
#335
b11111111111110001111111110001111 #
b11111111111000 C
b110000000000010000101 Q
#336
b101010110000000001101100 #
b10101011 C
b11111111011000101111111110100100 Q
#337
b1001100000000010001111 #
b100110 C
b11111111111011111111111110000100 Q
#338
b11111111011100101111111110101101 #
b11111101110010 C
b101000000000000001100010 Q
#339
b11111111111110011111111110001111 #
b11111111111001 C
b101110000000010000011 Q
#340
b101011000000000001101111 #
b10101100 C
b11111111011001011111111110100101 Q
#341
b1001100000000010001101 #
b100110 C
b11111111111011011111111110000010 Q
#342
b11111111011011011111111110101110 #
b11111101101101 C
b100111100000000001100001 Q
#343
b11111111111110101111111110001110 #
b11111111111010 C
b110110000000010000001 Q
#344
b101011000000000001101111 #
b10101100 C
b11111111011001111111111110100100 Q
#345
b1001100000000010001101 #
b100110 C
b11111111111011011111111110000011 Q
#346
b11111111011011101111111110101101 #
b11111101101110 C
b101000000000000001100011 Q
#347
b11111111111110111111111110001101 #
b11111111111011 C
b101100000000010000001 Q
#348
b101011000000000001110000 #
b10101100 C
b11111111011001011111111110100100 Q
#349
b1001000000000010001110 #
b100100 C
b11111111111011101111111110000100 Q
#350
b11111111011011111111111110101101 #
b11111101101111 C
b101000100000000001100010 Q
#351
b11111111111110101111111110001110 #
b11111111111010 C
b110100000000010000011 Q
#352
b101011100000000001101110 #
b10101110 C
b11111111011001011111111110100011 Q
#353
b1001000000000010001110 #
b100100 C
b11111111111011101111111110000110 Q
#354
b11111111011100011111111110101101 #
b11111101110001 C
b101000100000000001100011 Q
#355
b11111111111110101111111110001111 #
b11111111111010 C
b110010000000010000011 Q
#356
b101010100000000001110000 #
b10101010 C
b11111111011001101111111110100101 Q
#357
b1000100000000010001111 #
b100010 C
b11111111111011011111111110000010 Q
#358
b11111111011100011111111110101101 #
b11111101110001 C
b101001010000000001011111 Q
#359
b11111111111110101111111110010001 #
b11111111111010 C
b110110000000010000000 Q
#360
b101010010000000001101101 #
b10101001 C
b11111111011001111111111110100011 Q
#361
b1001000000000010001111 #
b100100 C
b11111111111010101111111110000100 Q
#362
b11111111011100001111111110101100 #
b11111101110000 C
b100111110000000001100001 Q
#363
b11111111111110011111111110001111 #
b11111111111001 C
b110000000000010000010 Q
#364
b101011100000000001110010 #
b10101110 C
b11111111011001101111111110100101 Q
#365
b1001010000000010001011 #
b100101 C
b11111111111011001111111110000101 Q
#366
b11111111011100101111111110110000 #
b11111101110010 C
b101000010000000001100010 Q
#367
b11111111111110101111111110001111 #
b11111111111010 C
b110010000000010000111 Q
#368
b101011110000000001101111 #
b10101111 C
b11111111011000111111111110100100 Q
#369
b1001000000000010001110 #
b100100 C
b11111111111011101111111110000110 Q
#370
b11111111011100011111111110101100 #
b11111101110001 C
b101000100000000001100011 Q
#371
b11111111111110001111111110001111 #
b11111111111000 C
b101100000000010000101 Q
#372
b101010110000000001110000 #
b10101011 C
b11111111011001001111111110100011 Q
#373
b1001100000000010001100 #
b100110 C
b11111111111011101111111110001001 Q
#374
b11111111011011111111111110110010 #
b11111101101111 C
b101000010000000001100100 Q
#375
b11111111111101111111111110001110 #
b11111111110111 C
b101110000000010000010 Q
