projects/fmcjesdadc1/kc705/.Xil/Vivado-25324-CI-89/hw_ila_data_1/zip_work/waveform.vcd
$date
        2021-Dec-16 17:06:43
$end
$version
        Vivado v2019.1 (64-bit)
$end
$timescale
        1ps
$end
$scope module dut $end
$var reg 1 " i_system_wrapper/system_i/util_fmcjesdadc1_xcvr_rx_out_clk_0 $end
$var reg 64 # i_system_wrapper/system_i/axi_ad9250_cpack_packed_fifo_wr_data [63:0] $end
$var reg 1 c i_system_wrapper/system_i/axi_ad9250_cpack_packed_fifo_wr_en $end
$var reg 1 d i_system_wrapper/system_i/axi_ad9250_cpack_packed_fifo_wr_sync $end
$var reg 1 e i_system_wrapper/system_i/axi_ad9250_core_adc_clk $end
$var reg 1 f i_system_wrapper/system_i/axi_ad9250_core_rx_ready $end
$var reg 1 g i_system_wrapper/system_i/axi_ad9250_core_adc_valid_a $end
$var reg 1 h i_system_wrapper/system_i/axi_ad9250_dma_irq $end
$var reg 16 i i_system_wrapper/system_i/sys_concat_intc_dout [15:0] $end
$var reg 14 y data_a_low [13:0] $end
$var reg 32 )" i_system_wrapper/system_i/axi_ad9250_core_adc_data_a [31:0] $end
$var reg 14 I" data_a_high [13:0] $end
$var reg 32 W" data_b_high [31:0] $end
$var reg 14 w" data_b_low [13:0] $end
$var reg 32 '# i_system_wrapper/system_i/axi_ad9250_core_adc_data_b [31:0] $end
$var reg 14 G# data_b_high' [13:0] $end
$var reg 1 U# _TRIGGER $end
$var reg 1 V# _WINDOW $end
$var reg 1 W# _GAP $end
$upscope $end
$enddefinitions $end
#0
$dumpvars
0"
b1111110001000101000000111101011011111011100101110000010010001000 #
1c
1d
0e
1f
1g
1h
b1000000000000 i
b1100111101 y
b10100111000000001100111101 )"
b1010011100 I"
b11111101011110101111110011100000 W"
b11110011100000 w"
b11111101011110101111110011100000 '#
b11110101111010 G#
1U#
1V#
0W#
$end
#1
b1111110101111010000000101001110011111100111000000000001100111101 #
b111110010 y
b1010110000000000111110010 )"
b101011000 I"
b11111110101111101111111000100111 W"
b11111000100111 w"
b11111110101111101111111000100111 '#
b11111010111110 G#
#2
b1111111010111110000000010101100011111110001001110000000111110010 #
b10111101 y
b11000000000010111101 )"
b1100 I"
b101111111101010101 W"
b11111101010101 w"
b101111111101010101 '#
b10 G#
#3
b10000000000000110011111111010101010000000010111101 #
b11111101010011 y
b11111110101011011111111101010011 )"
b11111010101101 I"
b1011000110000000010111100 W"
b10111100 w"
b1011000110000000010111100 '#
b101100011 G#
#4
b101100011111111101010110100000000101111001111111101010011 #
b11110111111111 y
b11111101010111101111110111111111 )"
b11110101011110 I"
b10101011000000001000001011 W"
b1000001011 w"
b10101011000000001000001011 '#
b1010101100 G#
#5
b1010101100111111010101111000000010000010111111110111111111 #
b11110011000000 y
b11111100000110111111110011000000 )"
b11110000011011 I"
b11111011000000001101001101 W"
b1101001101 w"
b11111011000000001101001101 '#
b1111101100 G#
#6
b1111101100111111000001101100000011010011011111110011000000 #
b11101110000011 y
b11111010110110011111101110000011 )"
b11101011011001 I"
b101001011100000010001111111 W"
b10001111111 w"
b101001011100000010001111111 '#
b10100101110 G#
#7
b10100101110111110101101100100000100011111111111101110000011 #
b11101000111101 y
b11111001100101011111101000111101 )"
b11100110010101 I"
b110011011100000010111001001 W"
b10111001001 w"
b110011011100000010111001001 '#
b11001101110 G#
#8
b11001101110111110011001010100000101110010011111101000111101 #
b11100011111000 y
b11111000010111001111100011111000 )"
b11100001011100 I"
b111100111110000011100001011 W"
b11100001011 w"
b111100111110000011100001011 '#
b11110011111 G#
#9
b11110011111111110000101110000000111000010111111100011111000 #
b11011110110101 y
b11110111001101001111011110110101 )"
b11011100110100 I"
b1000110010000000100001001011 W"
b100001001011 w"
b1000110010000000100001001011 '#
b100011001000 G#
#10
b100011001000111101110011010000001000010010111111011110110101 #
b11011010011001 y
b11110110000001101111011010011001 )"
b11011000000110 I"
b1001111100110000100101100010 W"
b100101100010 w"
b1001111100110000100101100010 '#
b100111110011 G#
#11
b100111110011111101100000011000001001011000101111011010011001 #
b11010101100111 y
b11110100110010011111010101100111 )"
b11010011001001 I"
b1011001011100000101010010000 W"
b101010010000 w"
b1011001011100000101010010000 '#
b101100101110 G#
#12
b101100101110111101001100100100001010100100001111010101100111 #
b11010001011100 y
b11110011110001011111010001011100 )"
b11001111000101 I"
b1100001100100000101110011010 W"
b101110011010 w"
b1100001100100000101110011010 '#
b110000110010 G#
#13
b110000110010111100111100010100001011100110101111010001011100 #
b11001100111100 y
b11110010101110111111001100111100 )"
b11001010111011 I"
b1101001110000000110010111001 W"
b110010111001 w"
b1101001110000000110010111001 '#
b110100111000 G#
#14
b110100111000111100101011101100001100101110011111001100111100 #
b11001000110011 y
b11110001110100101111001000110011 )"
b11000111010010 I"
b1110000111100000110110111111 W"
b110110111111 w"
b1110000111100000110110111111 '#
b111000011110 G#
#15
b111000011110111100011101001000001101101111111111001000110011 #
b11000101011001 y
b11110000110111001111000101011001 )"
b11000011011100 I"
b1111000100000000111010010111 W"
b111010010111 w"
b1111000100000000111010010111 '#
b111100010000 G#
#16
b111100010000111100001101110000001110100101111111000101011001 #
b11000001011111 y
b11110000000011001111000001011111 )"
b11000000001100 I"
b1111110111000000111110001110 W"
b111110001110 w"
b1111110111000000111110001110 '#
b111111011100 G#
#17
b111111011100111100000000110000001111100011101111000001011111 #
b10111110001100 y
b11101111001110011110111110001100 )"
b10111100111001 I"
b10000101100010001000001011010 W"
b1000001011010 w"
b10000101100010001000001011010 '#
b1000010110001 G#
#18
b1000010110001111011110011100100010000010110101110111110001100 #
b10111011010001 y
b11101110011011101110111011010001 )"
b10111001101110 I"
b10001011110100001000100010111 W"
b1000100010111 w"
b10001011110100001000100010111 '#
b1000101111010 G#
#19
b1000101111010111011100110111000010001000101111110111011010001 #
b10111000101001 y
b11101101101101001110111000101001 )"
b10110110110100 I"
b10010001100100001000111000000 W"
b1000111000000 w"
b10010001100100001000111000000 '#
b1001000110010 G#
#20
b1001000110010111011011011010000010001110000001110111000101001 #
b10110101110000 y
b11101101001100101110110101110000 )"
b10110100110010 I"
b10010101100100001001001111000 W"
b1001001111000 w"
b10010101100100001001001111000 '#
b1001010110010 G#
#21
b1001010110010111011010011001000010010011110001110110101110000 #
b10110011111000 y
b11101100101100001110110011111000 )"
b10110010110000 I"
b10011001100000001001011100110 W"
b1001011100110 w"
b10011001100000001001011100110 '#
b1001100110000 G#
#22
b1001100110000111011001011000000010010111001101110110011111000 #
b10110001110001 y
b11101100010001101110110001110001 )"
b10110001000110 I"
b10011100111000001001101101101 W"
b1001101101101 w"
b10011100111000001001101101101 '#
b1001110011100 G#
#23
b1001110011100111011000100011000010011011011011110110001110001 #
b10110000011100 y
b11101011111100001110110000011100 )"
b10101111110000 I"
b10011111100010001001111000110 W"
b1001111000110 w"
b10011111100010001001111000110 '#
b1001111110001 G#
#24
b1001111110001111010111111000000010011110001101110110000011100 #
b10101110100111 y
b11101011100110011110101110100111 )"
b10101110011001 I"
b10100010001110001010000111010 W"
b1010000111010 w"
b10100010001110001010000111010 '#
b1010001000111 G#
#25
b1010001000111111010111001100100010100001110101110101110100111 #
b10101101110111 y
b11101011011001101110101101110111 )"
b10101101100110 I"
b10100011101110001010001100110 W"
b1010001100110 w"
b10100011101110001010001100110 '#
b1010001110111 G#
#26
b1010001110111111010110110011000010100011001101110101101110111 #
b10101101011001 y
b11101011010100101110101101011001 )"
b10101101010010 I"
b10100100010110001010010000011 W"
b1010010000011 w"
b10100100010110001010010000011 '#
b1010010001011 G#
#27
b1010010001011111010110101001000010100100000111110101101011001 #
b10101101000111 y
b11101011001110111110101101000111 )"
b10101100111011 I"
b10100101001100001010010011001 W"
b1010010011001 w"
b10100101001100001010010011001 '#
b1010010100110 G#
#28
b1010010100110111010110011101100010100100110011110101101000111 #
b10101100111001 y
b11101011010100101110101100111001 )"
b10101101010010 I"
b10100100011000001010010100100 W"
b1010010100100 w"
b10100100011000001010010100100 '#
b1010010001100 G#
#29
b1010010001100111010110101001000010100101001001110101100111001 #
b10101101011011 y
b11101011011010011110101101011011 )"
b10101101101001 I"
b10100011101110001010010000010 W"
b1010010000010 w"
b10100011101110001010010000010 '#
b1010001110111 G#
#30
b1010001110111111010110110100100010100100000101110101101011011 #
b10101101110001 y
b11101011100111111110101101110001 )"
b10101110011111 I"
b10100010000100001010001101100 W"
b1010001101100 w"
b10100010000100001010001101100 '#
b1010001000010 G#
#31
b1010001000010111010111001111100010100011011001110101101110001 #
b10101111000011 y
b11101011111000001110101111000011 )"
b10101111100000 I"
b10100000000010001010000011010 W"
b1010000011010 w"
b10100000000010001010000011010 '#
b1010000000001 G#
#32
b1010000000001111010111110000000010100000110101110101111000011 #
b10110000001010 y
b11101100010001101110110000001010 )"
b10110001000110 I"
b10011100111000001001111010110 W"
b1001111010110 w"
b10011100111000001001111010110 '#
b1001110011100 G#
#33
b1001110011100111011000100011000010011110101101110110000001010 #
b10110001111011 y
b11101100110010011110110001111011 )"
b10110011001001 I"
b10011000110110001001101100110 W"
b1001101100110 w"
b10011000110110001001101100110 '#
b1001100011011 G#
#34
b1001100011011111011001100100100010011011001101110110001111011 #
b10110011110110 y
b11101101010001011110110011110110 )"
b10110101000101 I"
b10010100111110001001011101000 W"
b1001011101000 w"
b10010100111110001001011101000 '#
b1001010011111 G#
#35
b1001010011111111011010100010100010010111010001110110011110110 #
b10110110000001 y
b11101101110101001110110110000001 )"
b10110111010100 I"
b10010000011010001001001100001 W"
b1001001100001 w"
b10010000011010001001001100001 '#
b1001000001101 G#
#36
b1001000001101111011011101010000010010011000011110110110000001 #
b10111000101010 y
b11101110100010111110111000101010 )"
b10111010001011 I"
b10001010101010001000110111100 W"
b1000110111100 w"
b10001010101010001000110111100 '#
b1000101010101 G#
#37
b1000101010101111011101000101100010001101111001110111000101010 #
b10111011010101 y
b11101111001110101110111011010101 )"
b10111100111010 I"
b10000101100100001000100010011 W"
b1000100010011 w"
b10000101100100001000100010011 '#
b1000010110010 G#
#38
b1000010110010111011110011101000010001000100111110111011010101 #
b10111110100100 y
b11110000000011011110111110100100 )"
b11000000001101 I"
b1111110111100001000001000101 W"
b1000001000101 w"
b1111110111100001000001000101 '#
b111111011110 G#
#39
b111111011110111100000000110100010000010001011110111110100100 #
b11000010000100 y
b11110000111100011111000010000100 )"
b11000011110001 I"
b1110111110010000111101101000 W"
b111101101000 w"
b1110111110010000111101101000 '#
b111011111001 G#
#40
b111011111001111100001111000100001111011010001111000010000100 #
b11000101100001 y
b11110001110000001111000101100001 )"
b11000111000000 I"
b1110001011000000111010001110 W"
b111010001110 w"
b1110001011000000111010001110 '#
b111000101100 G#
#41
b111000101100111100011100000000001110100011101111000101100001 #
b11001001000111 y
b11110010110110111111001001000111 )"
b11001011011011 I"
b1101000101010000110110100111 W"
b110110100111 w"
b1101000101010000110110100111 '#
b110100010101 G#
#42
b110100010101111100101101101100001101101001111111001001000111 #
b11001101010111 y
b11110011111000101111001101010111 )"
b11001111100010 I"
b1100000100000000110010010110 W"
b110010010110 w"
b1100000100000000110010010110 '#
b110000010000 G#
#43
b110000010000111100111110001000001100100101101111001101010111 #
b11010001001110 y
b11110100111001011111010001001110 )"
b11010011100101 I"
b1011000100100000101110101001 W"
b101110101001 w"
b1011000100100000101110101001 '#
b101100010010 G#
#44
b101100010010111101001110010100001011101010011111010001001110 #
b11010110001101 y
b11110110000101011111010110001101 )"
b11011000010101 I"
b1001111000110000101001100110 W"
b101001100110 w"
b1001111000110000101001100110 '#
b100111100011 G#
#45
b100111100011111101100001010100001010011001101111010110001101 #
b11011010101010 y
b11110111001010101111011010101010 )"
b11011100101010 I"
b1000110100100000100101010001 W"
b100101010001 w"
b1000110100100000100101010001 '#
b100011010010 G#
#46
b100011010010111101110010101000001001010100011111011010101010 #
b11011111000001 y
b11111000011101011111011111000001 )"
b11100001110101 I"
b111100001100000100000110111 W"
b100000110111 w"
b111100001100000100000110111 '#
b11110000110 G#
#47
b11110000110111110000111010100001000001101111111011111000001 #
b11100100100000 y
b11111001101010011111100100100000 )"
b11100110101001 I"
b110010110000000011011011111 W"
b11011011111 w"
b110010110000000011011011111 '#
b11001011000 G#
#48
b11001011000111110011010100100000110110111111111100100100000 #
b11101001010011 y
b11111010110110101111101001010011 )"
b11101011011010 I"
b101001001110000010110110011 W"
b10110110011 w"
b101001001110000010110110011 '#
b10100100111 G#
#49
b10100100111111110101101101000000101101100111111101001010011 #
b11101110100011 y
b11111100001010011111101110100011 )"
b11110000101001 I"
b11110111000000010001100010 W"
b10001100010 w"
b11110111000000010001100010 '#
b1111011100 G#
#50
b1111011100111111000010100100000100011000101111101110100011 #
b11110011010010 y
b11111101100000011111110011010010 )"
b11110110000001 I"
b10100001110000001100110111 W"
b1100110111 w"
b10100001110000001100110111 '#
b1010000111 G#
#51
b1010000111111111011000000100000011001101111111110011010010 #
b11111000011101 y
b11111110110100111111111000011101 )"
b11111011010011 I"
b1001110000000000111101011 W"
b111101011 w"
b1001110000000000111101011 '#
b100111000 G#
#52
b100111000111111101101001100000001111010111111111000011101 #
b11111101101101 y
b10101111111101101101 )"
b1010 I"
b110000000010100010 W"
b10100010 w"
b110000000010100010 '#
b11 G#
#53
b11000000000000101000000000101000101111111101101101 #
b11000100 y
b1011100100000000011000100 )"
b101110010 I"
b11111110101000011111111101001011 W"
b11111101001011 w"
b11111110101000011111111101001011 '#
b11111010100001 G#
#54
b1111111010100001000000010111001011111111010010110000000011000100 #
b1000000100 y
b10110000000000001000000100 )"
b1011000000 I"
b11111101010100101111111000001111 W"
b11111000001111 w"
b11111101010100101111111000001111 '#
b11110101010010 G#
#55
b1111110101010010000000101100000011111110000011110000001000000100 #
b1101101011 y
b11111111000000001101101011 )"
b1111111100 I"
b11111100000110111111110010101001 W"
b11110010101001 w"
b11111100000110111111110010101001 '#
b11110000011011 G#
#56
b1111110000011011000000111111110011111100101010010000001101101011 #
b10010100100 y
b101010011000000010010100100 )"
b10101001100 I"
b11111010110100111111101101110110 W"
b11101101110110 w"
b11111010110100111111101101110110 '#
b11101011010011 G#
#57
b1111101011010011000001010100110011111011011101100000010010100100 #
b10111100100 y
b110100001100000010111100100 )"
b11010000110 I"
b11111001100110011111101000111100 W"
b11101000111100 w"
b11111001100110011111101000111100 '#
b11100110011001 G#
#58
b1111100110011001000001101000011011111010001111000000010111100100 #
b11100100001 y
b111110101110000011100100001 )"
b11111010111 I"
b11111000010010101111100100000000 W"
b11100100000000 w"
b11111000010010101111100100000000 '#
b11100001001010 G#
#59
b1111100001001010000001111101011111111001000000000000011100100001 #
b100001010010 y
b1000111011010000100001010010 )"
b100011101101 I"
b11110111001101111111011111010000 W"
b11011111010000 w"
b11110111001101111111011111010000 '#
b11011100110111 G#
#60
b1111011100110111000010001110110111110111110100000000100001010010 #
b100110000010 y
b1010000100100000100110000010 )"
b101000010010 I"
b11110110000101101111011010011110 W"
b11011010011110 w"
b11110110000101101111011010011110 '#
b11011000010110 G#
#61
b1111011000010110000010100001001011110110100111100000100110000010 #
b101010101111 y
b1011010011000000101010101111 )"
b101101001100 I"
b11110100111000101111010101111110 W"
b11010101111110 w"
b11110100111000101111010101111110 '#
b11010011100010 G#
#62
b1111010011100010000010110100110011110101011111100000101010101111 #
b101110111101 y
b1100010011000000101110111101 )"
b110001001100 I"
b11110011111000101111010001110001 W"
b11010001110001 w"
b11110011111000101111010001110001 '#
b11001111100010 G#
#63
b1111001111100010000011000100110011110100011100010000101110111101 #
b110011010110 y
b1101010110010000110011010110 )"
b110101011001 I"
b11110010110100111111001101011000 W"
b11001101011000 w"
b11110010110100111111001101011000 '#
b11001011010011 G#
#64
b1111001011010011000011010101100111110011010110000000110011010110 #
b110111011101 y
b1110010010100000110111011101 )"
b111001001010 I"
b11110001111001011111001001010100 W"
b11001001010100 w"
b11110001111001011111001001010100 '#
b11000111100101 G#
#65
b1111000111100101000011100100101011110010010101000000110111011101 #
b111010111110 y
b1111010000000000111010111110 )"
b111101000000 I"
b11110000111101111111000101110101 W"
b11000101110101 w"
b11110000111101111111000101110101 '#
b11000011110111 G#
#66
b1111000011110111000011110100000011110001011101010000111010111110 #
b111110111001 y
b10000000111100000111110111001 )"
b1000000011110 I"
b11110000000110011111000001111011 W"
b11000001111011 w"
b11110000000110011111000001111011 '#
b11000000011001 G#
#67
b1111000000011001000100000001111011110000011110110000111110111001 #
b1000010000110 y
b10000110111010001000010000110 )"
b1000011011101 I"
b11101111010111001110111110110000 W"
b10111110110000 w"
b11101111010111001110111110110000 '#
b10111101011100 G#
#68
b1110111101011100000100001101110111101111101100000001000010000110 #
b1000100110100 y
b10001101001110001000100110100 )"
b1000110100111 I"
b11101110100101011110111100001000 W"
b10111100001000 w"
b11101110100101011110111100001000 '#
b10111010010101 G#
#69
b1110111010010101000100011010011111101111000010000001000100110100 #
b1001000000100 y
b10010010100100001001000000100 )"
b1001001010010 I"
b11101101111010111110111000111000 W"
b10111000111000 w"
b11101101111010111110111000111000 '#
b10110111101011 G#
#70
b1110110111101011000100100101001011101110001110000001001000000100 #
b1001010011011 y
b10010111001100001001010011011 )"
b1001011100110 I"
b11101101010101111110110110100011 W"
b10110110100011 w"
b11101101010101111110110110100011 '#
b10110101010111 G#
#71
b1110110101010111000100101110011011101101101000110001001010011011 #
b1001100110001 y
b10011011010000001001100110001 )"
b1001101101000 I"
b11101100110101001110110100010001 W"
b10110100010001 w"
b11101100110101001110110100010001 '#
b10110011010100 G#
#72
b1110110011010100000100110110100011101101000100010001001100110001 #
b1001110101011 y
b10011110110000001001110101011 )"
b1001111011000 I"
b11101100011001011110110010010101 W"
b10110010010101 w"
b11101100011001011110110010010101 '#
b10110001100101 G#
#73
b1110110001100101000100111101100011101100100101010001001110101011 #
b1010000000110 y
b10100001101100001010000000110 )"
b1010000110110 I"
b11101100000011111110110000111001 W"
b10110000111001 w"
b11101100000011111110110000111001 '#
b10110000001111 G#
#74
b1110110000001111000101000011011011101100001110010001010000000110 #
b1010001101000 y
b10100100001000001010001101000 )"
b1010010000100 I"
b11101011101111011110101111011011 W"
b10101111011011 w"
b11101011101111011110101111011011 '#
b10101110111101 G#
#75
b1110101110111101000101001000010011101011110110110001010001101000 #
b1010010101001 y
b10100101111110001010010101001 )"
b1010010111111 I"
b11101011100001011110101110011000 W"
b10101110011000 w"
b11101011100001011110101110011000 '#
b10101110000101 G#
#76
b1110101110000101000101001011111111101011100110000001010010101001 #
b1010010111011 y
b10100110011010001010010111011 )"
b1010011001101 I"
b11101011011101001110101110000011 W"
b10101110000011 w"
b11101011011101001110101110000011 '#
b10101101110100 G#
#77
b1110101101110100000101001100110111101011100000110001010010111011 #
b1010011010001 y
b10100111000100001010011010001 )"
b1010011100010 I"
b11101011010111101110101101110100 W"
b10101101110100 w"
b11101011010111101110101101110100 '#
b10101101011110 G#
#78
b1110101101011110000101001110001011101011011101000001010011010001 #
b1010011011101 y
b10100110011000001010011011101 )"
b1010011001100 I"
b11101011011101011110101101100101 W"
b10101101100101 w"
b11101011011101011110101101100101 '#
b10101101110101 G#
#79
b1110101101110101000101001100110011101011011001010001010011011101 #
b1010011001010 y
b10100101100110001010011001010 )"
b1010010110011 I"
b11101011100100001110101101111001 W"
b10101101111001 w"
b11101011100100001110101101111001 '#
b10101110010000 G#
#80
b1110101110010000000101001011001111101011011110010001010011001010 #
b1010010000001 y
b10100100001110001010010000001 )"
b1010010000111 I"
b11101011101111111110101111000100 W"
b10101111000100 w"
b11101011101111111110101111000100 '#
b10101110111111 G#
#81
b1110101110111111000101001000011111101011110001000001010010000001 #
b1010001010101 y
b10100001101010001010001010101 )"
b1010000110101 I"
b11101100000011011110101111101111 W"
b10101111101111 w"
b11101100000011011110101111101111 '#
b10110000001101 G#
#82
b1110110000001101000101000011010111101011111011110001010001010101 #
b1001111111101 y
b10011111000000001001111111101 )"
b1001111100000 I"
b11101100011001001110110001000110 W"
b10110001000110 w"
b11101100011001001110110001000110 '#
b10110001100100 G#
#83
b1110110001100100000100111110000011101100010001100001001111111101 #
b1001110011001 y
b10011010111100001001110011001 )"
b1001101011110 I"
b11101100111000101110110010101000 W"
b10110010101000 w"
b11101100111000101110110010101000 '#
b10110011100010 G#
#84
b1110110011100010000100110101111011101100101010000001001110011001 #
b1001100101000 y
b10010111010110001001100101000 )"
b1001011101011 I"
b11101101010110101110110100011001 W"
b10110100011001 w"
b11101101010110101110110100011001 '#
b10110101011010 G#
#85
b1110110101011010000100101110101111101101000110010001001100101000 #
b1001010011100 y
b10010010011000001001010011100 )"
b1001001001100 I"
b11101101111100011110110110100110 W"
b10110110100110 w"
b11101101111100011110110110100110 '#
b10110111110001 G#
#86
b1110110111110001000100100100110011101101101001100001001010011100 #
b1000111110011 y
b10001100111110001000111110011 )"
b1000110011111 I"
b11101110100111011110111001001001 W"
b10111001001001 w"
b11101110100111011110111001001001 '#
b10111010011101 G#
#87
b1110111010011101000100011001111111101110010010010001000111110011 #
b1000101001010 y
b10000110100010001000101001010 )"
b1000011010001 I"
b11101111011001001110111011110011 W"
b10111011110011 w"
b11101111011001001110111011110011 '#
b10111101100100 G#
#88
b1110111101100100000100001101000111101110111100110001000101001010 #
b1000010000001 y
b10000000110010001000010000001 )"
b1000000011001 I"
b11110000001000011110111110111000 W"
b10111110111000 w"
b11110000001000011110111110111000 '#
b11000000100001 G#
#89
b1111000000100001000100000001100111101111101110000001000010000001 #
b111110011001 y
b1111001010110000111110011001 )"
b111100101011 I"
b11110001000010111111000010011010 W"
b11000010011010 w"
b11110001000010111111000010011010 '#
b11000100001011 G#
#90
b1111000100001011000011110010101111110000100110100000111110011001 #
b111010111010 y
b1110010000100000111010111010 )"
b111001000010 I"
b11110001111100101111000101111011 W"
b11000101111011 w"
b11110001111100101111000101111011 '#
b11000111110010 G#
#91
b1111000111110010000011100100001011110001011110110000111010111010 #
b110111001100 y
b1101010001110000110111001100 )"
b110101000111 I"
b11110010111100001111001001100110 W"
b11001001100110 w"
b11110010111100001111001001100110 '#
b11001011110000 G#
#92
b1111001011110000000011010100011111110010011001100000110111001100 #
b110011010000 y
b1100010010000000110011010000 )"
b110001001000 I"
b11110011111001111111001101100000 W"
b11001101100000 w"
b11110011111001111111001101100000 '#
b11001111100111 G#
#93
b1111001111100111000011000100100011110011011000000000110011010000 #
b101110111001 y
b1011001101000000101110111001 )"
b101100110100 I"
b11110100111101111111010001110100 W"
b11010001110100 w"
b11110100111101111111010001110100 '#
b11010011110111 G#
#94
b1111010011110111000010110011010011110100011101000000101110111001 #
b101010100000 y
b1010000010110000101010100000 )"
b101000001011 I"
b11110110000111111111010110001001 W"
b11010110001001 w"
b11110110000111111111010110001001 '#
b11011000011111 G#
#95
b1111011000011111000010100000101111110101100010010000101010100000 #
b100101110100 y
b1000111100110000100101110100 )"
b100011110011 I"
b11110111001100111111011010110101 W"
b11011010110101 w"
b11110111001100111111011010110101 '#
b11011100110011 G#
#96
b1111011100110011000010001111001111110110101101010000100101110100 #
b100001001111 y
b111101110110000100001001111 )"
b11110111011 I"
b11111000011010101111011111010110 W"
b11011111010110 w"
b11111000011010101111011111010110 '#
b11100001101010 G#
#97
b1111100001101010000001111011101111110111110101100000100001001111 #
b11011111111 y
b110100000110000011011111111 )"
b11010000011 I"
b11111001100111101111100100100010 W"
b11100100100010 w"
b11111001100111101111100100100010 '#
b11100110011110 G#
#98
b1111100110011110000001101000001111111001001000100000011011111111 #
b10111010100 y
b101001011110000010111010100 )"
b10100101111 I"
b11111010111011101111101001001010 W"
b11101001001010 w"
b11111010111011101111101001001010 '#
b11101011101110 G#
#99
b1111101011101110000001010010111111111010010010100000010111010100 #
b10010011000 y
b11111100000000010010011000 )"
b1111110000 I"
b11111100001011011111101110000010 W"
b11101110000010 w"
b11111100001011011111101110000010 '#
b11110000101101 G#
#100
b1111110000101101000000111111000011111011100000100000010010011000 #
b1101001111 y
b10101001000000001101001111 )"
b1010100100 I"
b11111101011101011111110011001000 W"
b11110011001000 w"
b11111101011101011111110011001000 '#
b11110101110101 G#
#101
b1111110101110101000000101010010011111100110010000000001101001111 #
b111110001 y
b1010100100000000111110001 )"
b101010010 I"
b11111110110000111111111000100001 W"
b11111000100001 w"
b11111110110000111111111000100001 '#
b11111011000011 G#
#102
b1111111011000011000000010101001011111110001000010000000111110001 #
b10110001 y
b10100000000010110001 )"
b1010 I"
b1101111111101100010 W"
b11111101100010 w"
b1101111111101100010 '#
b110 G#
#103
b110000000000000101011111111011000100000000010110001 #
b11111101100000 y
b11111110101110011111111101100000 )"
b11111010111001 I"
b1010101110000000010101110 W"
b10101110 w"
b1010101110000000010101110 '#
b101010111 G#
#104
b101010111111111101011100100000000101011101111111101100000 #
b11111000000100 y
b11111101011011011111111000000100 )"
b11110101101101 I"
b10100111010000001000001011 W"
b1000001011 w"
b10100111010000001000001011 '#
b1010011101 G#
#105
b1010011101111111010110110100000010000010111111111000000100 #
b11110011000010 y
b11111100001000111111110011000010 )"
b11110000100011 I"
b11111001100000001101001000 W"
b1101001000 w"
b11111001100000001101001000 '#
b1111100110 G#
#106
b1111100110111111000010001100000011010010001111110011000010 #
b11101101111001 y
b11111010110111001111101101111001 )"
b11101011011100 I"
b101001011000000010010001100 W"
b10010001100 w"
b101001011000000010010001100 '#
b10100101100 G#
#107
b10100101100111110101101110000000100100011001111101101111001 #
b11101000100111 y
b11111001101000101111101000100111 )"
b11100110100010 I"
b110011001100000010111011111 W"
b10111011111 w"
b110011001100000010111011111 '#
b11001100110 G#
#108
b11001100110111110011010001000000101110111111111101000100111 #
b11100100000001 y
b11111000010101111111100100000001 )"
b11100001010111 I"
b111101001100000011011111110 W"
b11011111110 w"
b111101001100000011011111110 '#
b11110100110 G#
#109
b11110100110111110000101011100000110111111101111100100000001 #
b11011111000000 y
b11110111001001011111011111000000 )"
b11011100100101 I"
b1000110101110000100000111011 W"
b100000111011 w"
b1000110101110000100000111011 '#
b100011010111 G#
#110
b100011010111111101110010010100001000001110111111011111000000 #
b11011010010010 y
b11110101111110101111011010010010 )"
b11010111111010 I"
b1010000000000000100101100011 W"
b100101100011 w"
b1010000000000000100101100011 '#
b101000000000 G#
#111
b101000000000111101011111101000001001011000111111011010010010 #
b11010101101111 y
b11110100111000101111010101101111 )"
b11010011100010 I"
b1011000101000000101010001011 W"
b101010001011 w"
b1011000101000000101010001011 '#
b101100010100 G#
#112
b101100010100111101001110001000001010100010111111010101101111 #
b11010001001111 y
b11110011110101001111010001001111 )"
b11001111010100 I"
b1100000111010000101110100101 W"
b101110100101 w"
b1100000111010000101110100101 '#
b110000011101 G#
#113
b110000011101111100111101010000001011101001011111010001001111 #
b11001100110111 y
b11110010101010011111001100110111 )"
b11001010101001 I"
b1101010001000000110011000010 W"
b110011000010 w"
b1101010001000000110011000010 '#
b110101000100 G#
#114
b110101000100111100101010100100001100110000101111001100110111 #
b11001000111111 y
b11110001110100101111001000111111 )"
b11000111010010 I"
b1110000111100000110110110101 W"
b110110110101 w"
b1110000111100000110110110101 '#
b111000011110 G#
#115
b111000011110111100011101001000001101101101011111001000111111 #
b11000101100001 y
b11110000111001111111000101100001 )"
b11000011100111 I"
b1111000001100000111010001101 W"
b111010001101 w"
b1111000001100000111010001101 '#
b111100000110 G#
#116
b111100000110111100001110011100001110100011011111000101100001 #
b11000001100100 y
b11101111111101111111000001100100 )"
b10111111110111 I"
b1111111101000000111110001001 W"
b111110001001 w"
b1111111101000000111110001001 '#
b111111110100 G#
#117
b111111110100111011111111011100001111100010011111000001100100 #
b10111110001111 y
b11101111001110011110111110001111 )"
b10111100111001 I"
b10000101100000001000001010111 W"
b1000001010111 w"
b10000101100000001000001010111 '#
b1000010110000 G#
#118
b1000010110000111011110011100100010000010101111110111110001111 #
b10111011011101 y
b11101110011010101110111011011101 )"
b10111001101010 I"
b10001011110010001000100001001 W"
b1000100001001 w"
b10001011110010001000100001001 '#
b1000101111001 G#
#119
b1000101111001111011100110101000010001000010011110111011011101 #
b10111000010111 y
b11101101110001111110111000010111 )"
b10110111000111 I"
b10010000111100001000111001100 W"
b1000111001100 w"
b10010000111100001000111001100 '#
b1001000011110 G#
#120
b1001000011110111011011100011100010001110011001110111000010111 #
b10110110000111 y
b11101101001111111110110110000111 )"
b10110100111111 I"
b10010101001000001001001011010 W"
b1001001011010 w"
b10010101001000001001001011010 '#
b1001010100100 G#
#121
b1001010100100111011010011111100010010010110101110110110000111 #
b10110011111001 y
b11101100101101011110110011111001 )"
b10110010110101 I"
b10011001010110001001011101111 W"
b1001011101111 w"
b10011001010110001001011101111 '#
b1001100101011 G#
#122
b1001100101011111011001011010100010010111011111110110011111001 #
b10110001101000 y
b11101100010011011110110001101000 )"
b10110001001101 I"
b10011100101010001001101111000 W"
b1001101111000 w"
b10011100101010001001101111000 '#
b1001110010101 G#
#123
b1001110010101111011000100110100010011011110001110110001101000 #
b10110000000011 y
b11101011111010101110110000000011 )"
b10101111101010 I"
b10011111110000001001111100001 W"
b1001111100001 w"
b10011111110000001001111100001 '#
b1001111111000 G#
#124
b1001111111000111010111110101000010011111000011110110000000011 #
b10101111000101 y
b11101011100101111110101111000101 )"
b10101110010111 I"
b10100010001110001010000011110 W"
b1010000011110 w"
b10100010001110001010000011110 '#
b1010001000111 G#
#125
b1010001000111111010111001011100010100000111101110101111000101 #
b10101101111101 y
b11101011011100101110101101111101 )"
b10101101110010 I"
b10100011011010001010001100010 W"
b1010001100010 w"
b10100011011010001010001100010 '#
b1010001101101 G#
#126
b1010001101101111010110111001000010100011000101110101101111101 #
b10101101010000 y
b11101011010011111110101101010000 )"
b10101101001111 I"
b10100100011110001010010001110 W"
b1010010001110 w"
b10100100011110001010010001110 '#
b1010010001111 G#
